*** Darwin 1x1 ***
Turn = 0.
  0
0 f

Turn = 3.
  0
0 f

*** Darwin 3x2 ***
Turn = 0.
  01
0 ..
1 .h
2 ..

Turn = 2.
  01
0 ..
1 ..
2 .h

Turn = 4.
  01
0 ..
1 ..
2 .h

Turn = 6.
  01
0 ..
1 ..
2 .h

Turn = 8.
  01
0 ..
1 ..
2 .h

Turn = 10.
  01
0 ..
1 ..
2 .h

*** Darwin 10x10 ***
Turn = 0.
  0123456789
0 ..........
1 ..r.......
2 ..........
3 ......t...
4 ..........
5 ..........
6 ..........
7 ..........
8 ..........
9 .......h..

Turn = 7.
  0123456789
0 r.........
1 ..........
2 ..........
3 ......t...
4 ..........
5 ..........
6 ..........
7 ..........
8 ..........
9 .........h

Turn = 14.
  0123456789
0 .......r..
1 ..........
2 ..........
3 ......t...
4 ..........
5 ..........
6 ..........
7 ..........
8 ..........
9 .........h

*** Darwin 2x2 ***
Turn = 0.
  01
0 hh
1 hh

Turn = 1.
  01
0 hh
1 hh

*** Darwin 2x2 ***
Turn = 0.
  01
0 rr
1 rr

Turn = 1.
  01
0 rr
1 rr

*** Darwin 2x2 ***
Turn = 0.
  01
0 rt
1 tr

Turn = 1.
  01
0 rt
1 tt

Turn = 2.
  01
0 tr
1 tr

Turn = 3.
  01
0 tt
1 tt

Turn = 4.
  01
0 tt
1 tt

Turn = 5.
  01
0 tt
1 tt

Turn = 6.
  01
0 tt
1 tt

Turn = 7.
  01
0 tt
1 tt

Turn = 8.
  01
0 tt
1 tt

Turn = 9.
  01
0 tt
1 tt

Turn = 10.
  01
0 tt
1 tt

*** Darwin 12x12 ***
Turn = 0.
  012345678901
0 r...........
1 .t..........
2 .....h......
3 ......f.....
4 .....t......
5 .....h......
6 ..r.........
7 ............
8 ............
9 ............
0 ........ff..
1 ...h........

Turn = 3.
  012345678901
0 r...........
1 .t..........
2 ........h...
3 ......f.....
4 .....t......
5 .....t......
6 r...........
7 ............
8 ............
9 ............
0 ........ff..
1 ......h.....

Turn = 6.
  012345678901
0 ..r.........
1 .t..........
2 ...........h
3 r.....f.....
4 .....t......
5 .....t......
6 ............
7 ............
8 ............
9 ............
0 ........ff..
1 .........h..

Turn = 9.
  012345678901
0 r....r......
1 .t..........
2 ...........h
3 ......f.....
4 .....t......
5 .....t......
6 ............
7 ............
8 ............
9 ............
0 ........ff..
1 ...........h

Turn = 12.
  012345678901
0 ..r.....r...
1 .t..........
2 ...........h
3 ......f.....
4 .....t......
5 .....t......
6 ............
7 ............
8 ............
9 ............
0 ........ff..
1 ...........h

Turn = 15.
  012345678901
0 .....r.....r
1 .t..........
2 ...........h
3 ......f.....
4 .....t......
5 .....t......
6 ............
7 ............
8 ............
9 ............
0 ........ff..
1 ...........h

Turn = 18.
  012345678901
0 ........r.r.
1 .t..........
2 ...........h
3 ......f.....
4 .....t......
5 .....t......
6 ............
7 ............
8 ............
9 ............
0 ........ff..
1 ...........h

Turn = 21.
  012345678901
0 .........r..
1 .t.......r..
2 ...........h
3 ......f.....
4 .....t......
5 .....t......
6 ............
7 ............
8 ............
9 ............
0 ........ff..
1 ...........h

Turn = 24.
  012345678901
0 ......r.....
1 .t..........
2 ...........h
3 ......f.....
4 .....t...r..
5 .....t......
6 ............
7 ............
8 ............
9 ............
0 ........ff..
1 ...........h

*** Darwin 50x33 ***
Turn = 0.
  012345678901234567890123456789012
0 r...............................r
1 .................................
2 .................................
3 .................................
4 .................................
5 .................................
6 .................................
7 .................................
8 .................................
9 .................................
0 .................................
1 .................................
2 .................................
3 .................................
4 .................................
5 .................................
6 .................................
7 .................................
8 .................................
9 .................................
0 .................................
1 .................................
2 .................................
3 .................................
4 .................................
5 .................f...............
6 .................................
7 .................................
8 .................................
9 .................................
0 .................................
1 .................................
2 .................................
3 .................................
4 .................................
5 .................................
6 .................................
7 .................................
8 .................................
9 .................................
0 .................................
1 .................................
2 .................................
3 .................................
4 .................................
5 .................................
6 .................................
7 .................................
8 .................................
9 r...............................r

Turn = 7.
  012345678901234567890123456789012
0 .........................r.......
1 .................................
2 .................................
3 .................................
4 .................................
5 .................................
6 .................................
7 r................................
8 .................................
9 .................................
0 .................................
1 .................................
2 .................................
3 .................................
4 .................................
5 .................................
6 .................................
7 .................................
8 .................................
9 .................................
0 .................................
1 .................................
2 .................................
3 .................................
4 .................................
5 .................f...............
6 .................................
7 .................................
8 .................................
9 .................................
0 .................................
1 .................................
2 .................................
3 .................................
4 .................................
5 .................................
6 .................................
7 .................................
8 .................................
9 .................................
0 .................................
1 .................................
2 r................................
3 .................................
4 .................................
5 .................................
6 .................................
7 .................................
8 .................................
9 .............................r...

Turn = 14.
  012345678901234567890123456789012
0 ..................r..............
1 .................................
2 .................................
3 .................................
4 .................................
5 .................................
6 .................................
7 .................................
8 .................................
9 .................................
0 .................................
1 .................................
2 .................................
3 .................................
4 r................................
5 .................................
6 .................................
7 .................................
8 .................................
9 .................................
0 .................................
1 .................................
2 .................................
3 .................................
4 .................................
5 .................f...............
6 .................................
7 .................................
8 .................................
9 .................................
0 .................................
1 .................................
2 .................................
3 .................................
4 .................................
5 r................................
6 .................................
7 .................................
8 .................................
9 .................................
0 .................................
1 .................................
2 .................................
3 .................................
4 .................................
5 .................................
6 .................................
7 .................................
8 .................................
9 ......................r..........

Turn = 21.
  012345678901234567890123456789012
0 ...........r.....................
1 .................................
2 .................................
3 .................................
4 .................................
5 .................................
6 .................................
7 .................................
8 .................................
9 .................................
0 .................................
1 .................................
2 .................................
3 .................................
4 .................................
5 .................................
6 .................................
7 .................................
8 .................................
9 .................................
0 .................................
1 r................................
2 .................................
3 .................................
4 .................................
5 .................f...............
6 .................................
7 .................................
8 r................................
9 .................................
0 .................................
1 .................................
2 .................................
3 .................................
4 .................................
5 .................................
6 .................................
7 .................................
8 .................................
9 .................................
0 .................................
1 .................................
2 .................................
3 .................................
4 .................................
5 .................................
6 .................................
7 .................................
8 .................................
9 ...............r.................

Turn = 28.
  012345678901234567890123456789012
0 ....r............................
1 .................................
2 .................................
3 .................................
4 .................................
5 .................................
6 .................................
7 .................................
8 .................................
9 .................................
0 .................................
1 .................................
2 .................................
3 .................................
4 .................................
5 .................................
6 .................................
7 .................................
8 .................................
9 .................................
0 .................................
1 .................................
2 .................................
3 .................................
4 .................................
5 ...r.............f...............
6 r................................
7 .................................
8 .................................
9 .................................
0 .................................
1 .................................
2 .................................
3 .................................
4 .................................
5 .................................
6 .................................
7 .................................
8 .................................
9 .................................
0 .................................
1 .................................
2 .................................
3 .................................
4 .................................
5 .................................
6 .................................
7 .................................
8 .................................
9 ........r........................

Turn = 35.
  012345678901234567890123456789012
0 .................................
1 .................................
2 r................................
3 .................................
4 .................................
5 .................................
6 .................................
7 .................................
8 .................................
9 .................................
0 .................................
1 .................................
2 .................................
3 .................................
4 .................................
5 .................................
6 .................................
7 .................................
8 .................................
9 .................................
0 .................................
1 .................................
2 .................................
3 .................................
4 .................................
5 ..........r......f...............
6 .................................
7 .................................
8 .................................
9 .................................
0 .................................
1 .................................
2 .................................
3 r................................
4 .................................
5 .................................
6 .................................
7 .................................
8 .................................
9 .................................
0 .................................
1 .................................
2 .................................
3 .................................
4 .................................
5 .................................
6 .................................
7 .................................
8 .................................
9 .r...............................

Turn = 42.
  012345678901234567890123456789012
0 .................................
1 .................................
2 .................................
3 .................................
4 .................................
5 .................................
6 .................................
7 .................................
8 .................................
9 r................................
0 .................................
1 .................................
2 .................................
3 .................................
4 .................................
5 .................................
6 .................................
7 .................................
8 .................................
9 .................................
0 .................................
1 .................................
2 .................................
3 .................................
4 .................................
5 ................rr...............
6 .................................
7 .................................
8 .................................
9 .................................
0 .................................
1 .................................
2 .................................
3 .................................
4 .................................
5 .................................
6 .................................
7 .................................
8 .................................
9 .................................
0 r................................
1 .................................
2 .................................
3 .................................
4 r................................
5 .................................
6 .................................
7 .................................
8 .................................
9 .................................

Turn = 49.
  012345678901234567890123456789012
0 .................................
1 .................................
2 .................................
3 .................................
4 .................................
5 .................................
6 .................................
7 .................................
8 .................................
9 .................................
0 .................................
1 .................................
2 .................................
3 .................................
4 .................................
5 .................................
6 r................................
7 .................................
8 .................r...............
9 ................r................
0 .................................
1 .................................
2 .................................
3 .................................
4 .................................
5 .................................
6 .................................
7 .................................
8 .................................
9 .................................
0 .................................
1 .................................
2 .................................
3 .................................
4 .................................
5 .................................
6 .................................
7 .................................
8 .................................
9 .................................
0 .................................
1 .................................
2 ....r............................
3 .....r...........................
4 .................................
5 .................................
6 .................................
7 .................................
8 .................................
9 .................................

*** Darwin 10x10 ***
Turn = 0.
  0123456789
0 t.........
1 ..........
2 ...t......
3 ......r...
4 ........r.
5 ......r...
6 ..r.......
7 .......t..
8 ..t.......
9 .r........

Turn = 5.
  0123456789
0 t.......r.
1 ..........
2 ...t......
3 ...t......
4 rr........
5 ..........
6 ..........
7 .......t..
8 ..t.......
9 ......r...

Turn = 10.
  0123456789
0 tr.r......
1 t.........
2 ...t......
3 ...t......
4 ..........
5 ..........
6 ..........
7 .......t..
8 ..t.......
9 .r........

Turn = 15.
  0123456789
0 trr.......
1 t.........
2 ...t......
3 ...t......
4 ..........
5 ..........
6 r.........
7 .......t..
8 ..t.......
9 ..........

Turn = 20.
  0123456789
0 tt........
1 r.........
2 r..t......
3 ...t......
4 ..........
5 ..r.......
6 ..........
7 .......t..
8 ..t.......
9 ..........

Turn = 25.
  0123456789
0 tt........
1 ..rr......
2 ..r.......
3 ...t......
4 ..........
5 ..........
6 ..........
7 .......t..
8 ..r.......
9 .r........

Turn = 30.
  0123456789
0 tr..r.....
1 .r........
2 ..........
3 r..t......
4 ..........
5 ..........
6 r.........
7 .......t..
8 .......r..
9 ..........

Turn = 35.
  0123456789
0 r........r
1 ..........
2 ..........
3 r..t......
4 .r........
5 r.........
6 .r........
7 .......t..
8 ..........
9 .........r

Turn = 40.
  0123456789
0 r...r....r
1 r.........
2 ..........
3 ...t......
4 ......r...
5 ..........
6 ..........
7 .......t..
8 ..........
9 ..r...r...

Turn = 45.
  0123456789
0 ...r.....r
1 ..........
2 ..........
3 ...t.....r
4 .........r
5 r.........
6 ..........
7 ....r..t..
8 ..........
9 ...r......

Turn = 50.
  0123456789
0 ........r.
1 .......r..
2 ......r...
3 ...tt.....
4 ..........
5 ..........
6 ..........
7 .......t..
8 rr.......r
9 ..........

Turn = 55.
  0123456789
0 ..........
1 ..r......r
2 .r........
3 r..tt.....
4 ..........
5 ..........
6 ..........
7 .......t..
8 ......r...
9 ......r...

Turn = 60.
  0123456789
0 r.........
1 r.........
2 ..........
3 ...tt.....
4 ..........
5 ..........
6 r........r
7 .......t.r
8 ..........
9 .r........

Turn = 65.
  0123456789
0 ..........
1 ..........
2 r.........
3 ...tt.....
4 r.........
5 ..........
6 .....r....
7 ......r...
8 r.........
9 r......r..

Turn = 70.
  0123456789
0 ..........
1 ..........
2 ..........
3 ...tt.....
4 ..........
5 ..........
6 r.........
7 rr........
8 r....r...r
9 .r........

Turn = 75.
  0123456789
0 ..........
1 ..........
2 r.........
3 ...tt....r
4 ..........
5 ..........
6 ..........
7 ....r.....
8 .....r...r
9 r.....r...

Turn = 80.
  0123456789
0 ..r.....r.
1 ..........
2 ..........
3 ...tt.....
4 ..........
5 r.........
6 ..........
7 ........rr
8 .........r
9 .........r

Turn = 85.
  0123456789
0 r......r..
1 .....r....
2 ........r.
3 ...tt.....
4 ..........
5 ..........
6 ..........
7 ........r.
8 .......r..
9 .........r

Turn = 90.
  0123456789
0 ....r.r...
1 ..........
2 .........r
3 ...tt.....
4 ..........
5 ..........
6 .....r....
7 ...r......
8 ..r.......
9 ....r.....

Turn = 95.
  0123456789
0 ...r.....r
1 ..........
2 ..........
3 ...tt.....
4 ..........
5 ..........
6 r.........
7 .........r
8 r.........
9 r.....r...

Turn = 100.
  0123456789
0 ..........
1 r.........
2 r.........
3 r..tt.....
4 .........r
5 ..........
6 r.........
7 ........r.
8 ..........
9 .........r

*** Darwin 25x25 ***
Turn = 0.
  0123456789012345678901234
0 rrrrrrrrrrrrrrrrrrrrrrrrr
1 .........................
2 .........................
3 .........................
4 .........................
5 .........................
6 .........................
7 .........................
8 .........................
9 .........................
0 .........................
1 .........................
2 .....ttttttttttttttt.....
3 .........................
4 .........................
5 .........................
6 .........................
7 .........................
8 .........................
9 .........................
0 .........................
1 .........................
2 .........................
3 .........................
4 hhhhhhhhhhhhhhhhhhhhhhhhh

Turn = 10.
  0123456789012345678901234
0 .........................
1 .........................
2 .........................
3 .........................
4 .........................
5 .........................
6 .........................
7 .........................
8 .........................
9 .........................
0 rrrrrrrrrrrrrrrrrrrrrrrrr
1 .........................
2 .....ttttttttttttttt.....
3 .........................
4 hhhhhhhhhhhhhhhhhhhhhhhhh
5 .........................
6 .........................
7 .........................
8 .........................
9 .........................
0 .........................
1 .........................
2 .........................
3 .........................
4 .........................

Turn = 20.
  0123456789012345678901234
0 .........................
1 .........................
2 .........................
3 .........................
4 ........r................
5 .....r.r.......r.r.......
6 ......r............r.....
7 r..r..............r.r..rr
8 .......r.r.....r.........
9 .r....r..................
0 ...............r.........
1 r.r....r...tttt..........
2 ......r..ttttttttrr......
3 ...r.r.....tttttt........
4 r.....................r..
5 ....rr...................
6 ......r..................
7 ..rr...r.............rr.r
8 ....r............r.......
9 ..r......r........r.r.rr.
0 ...................r.....
1 .........................
2 .........................
3 .........................
4 .........................

Turn = 30.
  0123456789012345678901234
0 ..rr.r..r.r....rr.r....r.
1 r....r...r.....r..r.r...r
2 r...r...........r........
3 ..................r......
4 r.......r................
5 ....r....................
6 .........................
7 .........................
8 .........................
9 r........................
0 .........................
1 ...........tttt..........
2 .........tttttttt........
3 ...........tttttt........
4 .........................
5 r........................
6 .........................
7 .........................
8 .........................
9 .........................
0 .................r.r.....
1 .........................
2 ...r.r..r................
3 r...r.................rrr
4 rr..rrrr......r....rrrr.r

Turn = 40.
  0123456789012345678901234
0 r....r......r...rr.......
1 rr.........r...........r.
2 r.........r......r.......
3 r...........r............
4 .........................
5 ................r........
6 .........................
7 ..rr.....................
8 ....r....................
9 .........................
0 ........r.......r..r.....
1 ...........tttt.r...r...r
2 ...r.....ttttttt.r.......
3 ........r..tttttt......r.
4 .........r...............
5 .r.....r............rr...
6 .........................
7 .....r..................r
8 .......................r.
9 .........................
0 .........r...............
1 .....r............r......
2 .........................
3 r............r...r.......
4 r.....rr.r......rr.......

Turn = 50.
  0123456789012345678901234
0 .....rr.............r....
1 ........rr...............
2 .........................
3 ........r.............rr.
4 .....r..........r........
5 ....r..r.............r...
6 .....r..r...........r....
7 .....r...................
8 ...r...................r.
9 ....r....................
0 ..........r..............
1 ...........tttt...r.....r
2 ......r..ttttttttt......r
3 r........tttttttt......r.
4 ......rr.....t....r......
5 ................r........
6 ...............r.........
7 ..r......................
8 ....r........r.........r.
9 ............r............
0 ........r................
1 ........................r
2 .........r...............
3 .........r...............
4 .....r...r...............

Turn = 60.
  0123456789012345678901234
0 ..........rr.........r..r
1 r.................r.....r
2 .........................
3 .....................r..r
4 ......r..................
5 ........r..r.............
6 ...r.....................
7 .........................
8 .........................
9 r....r...................
0 ..r.....r....t...........
1 ........rr.tttt.t........
2 ........rttttttttt.......
3 .......rtttttrttt........
4 ............rr.ttt.......
5 ....r..r.................
6 ........r...r............
7 .......r.................
8 .........................
9 ........................r
0 .........................
1 ................r.......r
2 .........................
3 rr.................r.....
4 r......r............r...r

Turn = 70.
  0123456789012345678901234
0 .........................
1 r.................r......
2 .......................rr
3 .........................
4 .........................
5 .....r..r.........r..r...
6 .........................
7 .......................r.
8 .........................
9 .........................
0 ........r.rrtt...........
1 r........r.tttt.t........
2 r.........rrtttttt.......
3 r.........rtttttt....r..r
4 .r..........tt.ttt.......
5 .r.......................
6 r........................
7 .r.......................
8 ..r......................
9 .....r...r...............
0 .........................
1 .........r...r..........r
2 r.......................r
3 ........rr...........r.r.
4 ....r........r.rr........

Turn = 80.
  0123456789012345678901234
0 ......rrr................
1 ........rr...............
2 .........................
3 .........................
4 .........................
5 .r.............r.........
6 r........................
7 r........................
8 .........................
9 .......................rr
0 ...........ttt...........
1 ........r.ttttt.t........
2 ...........ttttttt.....rr
3 r..........ttrttt........
4 ............tr.ttt.......
5 ............t...r........
6 .........rr..............
7 ....r......r...........r.
8 r........................
9 r........................
0 ..........r..............
1 .............r...........
2 ..............rr.........
3 ..............rr.....r..r
4 .rr......r.....r..r..r...

Turn = 90.
  0123456789012345678901234
0 .rr......................
1 r...r.r..................
2 ....r....................
3 .........................
4 .........................
5 ........................r
6 .........................
7 .........................
8 .........................
9 .........................
0 .......rr..ttt...........
1 .........tttttt.t........
2 r........t.ttttttt.......
3 ...........tttrtt........
4 ............ttrttt.......
5 ............ttr.r........
6 .r..................r....
7 ..............r......r...
8 r.................r......
9 .........r.............rr
0 r.......................r
1 .........................
2 ......r................rr
3 ........................r
4 r....r........r..r....r.r

Turn = 100.
  0123456789012345678901234
0 .........r...............
1 ..............r.r........
2 ..............r..........
3 r........................
4 .........................
5 .r.......................
6 .r.......................
7 .........................
8 .........................
9 .........................
0 ..r........ttt...........
1 .........tttttt.t........
2 .........t.ttttttt.......
3 ...........tttttt........
4 ............ttttttt......
5 ............tt.tt.......r
6 ......................r..
7 ........................r
8 rrr..............r....rr.
9 .r......................r
0 .......rr................
1 ..................r......
2 ...............r.........
3 ...............r.r.......
4 r...r..r.........r...r...

Turn = 110.
  0123456789012345678901234
0 ..r................r.....
1 .......................r.
2 .......................rr
3 rr.......................
4 .........................
5 .........................
6 .........................
7 .........................
8 rr.......................
9 .r......................r
0 ...........ttt...........
1 .........tttttt.t........
2 .........t.ttttttt.......
3 ...........tttttt........
4 .......r....ttttttt......
5 ............tt.ttt.......
6 .................t.......
7 ..r......................
8 r........................
9 .........................
0 r........................
1 ...........r.........r...
2 .....r....r..............
3 .....r.r..............r.r
4 .r......r.....r.......rr.

Turn = 120.
  0123456789012345678901234
0 ............r........r...
1 ..............r..........
2 r........................
3 .........................
4 .........................
5 .....r...................
6 ........r................
7 ..r......................
8 ........................r
9 .........................
0 ...........ttt...........
1 .r.......tttttt.t....r..r
2 r........trttttttt.....r.
3 ...........tttttt.......r
4 ...........tttttttt......
5 ...........ttt.ttt.......
6 .................t.......
7 ........................r
8 r...r....................
9 ......r..................
0 .......r.................
1 r......r.................
2 .........................
3 ............r............
4 ..r.r........r...........

Turn = 130.
  0123456789012345678901234
0 ....r..r....r........r...
1 ....r................r...
2 .........................
3 .........................
4 .........................
5 ...............r.........
6 ..................r......
7 .........................
8 ....r....................
9 .........................
0 r.......r...tt...........
1 .........tttttt.t........
2 ..........ttttttrrr......
3 ...........tttttt.tr.....
4 ..........ttttttttt......
5 ....r......ttt.ttt.......
6 .r...............t......r
7 r........................
8 .........................
9 ................r........
0 .................r.......
1 .r.....r.........r.......
2 .......................r.
3 ..r......................
4 ........r................

Turn = 140.
  0123456789012345678901234
0 ...r............r..r.....
1 r........................
2 r.................r......
3 .........................
4 ........................r
5 ....r...rr.........r....r
6 .........................
7 r........................
8 .........................
9 ........................r
0 ............tt...........
1 r......r.ttttttt.........
2 ..........ttttttt........
3 ...........tttttttt......
4 ..........ttttttttt......
5 ...........ttt.ttt.......
6 .................t.......
7 .........................
8 ........................r
9 .........................
0 ......r................r.
1 .........................
2 .....r...................
3 ......r.................r
4 ..................r.r..r.

Turn = 150.
  0123456789012345678901234
0 ..r....................r.
1 .......r..r..............
2 ........................r
3 .........................
4 rr.......................
5 .........................
6 ..........r......rr......
7 .r.......................
8 ...........r.............
9 .........................
0 ......r.....rt...........
1 ...........rtttt.........
2 ..........ttttttt.......r
3 ...........ttttttttr.....
4 ..........tttttttttr.....
5 ........r..ttt.ttt......r
6 .................t.r.....
7 ........................r
8 .........................
9 .........................
0 .............r...........
1 r.............r..........
2 ...............r.........
3 ................r........
4 ............rr...........

Turn = 160.
  0123456789012345678901234
0 .......r..r.r..r.........
1 ............r.......r....
2 .........................
3 .........................
4 .........................
5 ...............r.........
6 .r......................r
7 r........................
8 .........................
9 .....r...................
0 .............t...........
1 ............tt.....r..r..
2 ..........ttttttttt.....r
3 ...........ttttttttt.....
4 r.........ttttttttt......
5 ...........ttt.ttt......r
6 .................t.......
7 .r.............r.........
8 .........................
9 r......................r.
0 .........................
1 .......................rr
2 ........................r
3 .........................
4 ..rr....rr..............r

Turn = 170.
  0123456789012345678901234
0 rr.................r.r.rr
1 ...r..................r..
2 .........................
3 r........................
4 .........................
5 .........................
6 .........................
7 .........................
8 .........................
9 .............t...........
0 .............t...........
1 ............tt...........
2 ..........ttttttttt......
3 ...........ttttttttt.....
4 ..........ttttttttt.....r
5 ...........ttt.ttt....r..
6 .......r.........t......r
7 r.....rr.................
8 .........................
9 .........................
0 ...............r.........
1 .........................
2 ...r.r........r.........r
3 ..r...............rr.....
4 r.................r.....r

Turn = 180.
  0123456789012345678901234
0 .....................r...
1 .........................
2 .........................
3 .......................r.
4 .........................
5 r........................
6 .........................
7 r.....r..................
8 .........................
9 .............t........rr.
0 r............t..........r
1 ............tt...........
2 ...r......ttttttttt......
3 r.r........ttttttttt.....
4 ..........tttttttttt.....
5 ...........ttt.tttt......
6 ...........t.....tt......
7 ..........r......r.......
8 .........................
9 .........................
0 .....r...................
1 .....r...................
2 .........................
3 ........r...............r
4 .r.........r..r....r....r

Turn = 190.
  0123456789012345678901234
0 ........r..r.............
1 .........................
2 ...r.....................
3 ..r......................
4 .........................
5 .........................
6 .........................
7 .........................
8 .........................
9 .............t...........
0 .............t...........
1 ............tt...........
2 .....r.....tttttttt......
3 ..........tttttttttt...r.
4 ...........ttttttttt.....
5 r.........tttt.tttt......
6 ...........t.....tt..r...
7 r........................
8 .........................
9 ...r...........r......r..
0 r......................rr
1 ...............r.........
2 r.........r..............
3 ...............r.........
4 r........rr....r.........

Turn = 200.
  0123456789012345678901234
0 ..........r......r.......
1 .........................
2 .........................
3 r........................
4 .........................
5 .........................
6 .........................
7 .........................
8 .........r...............
9 .............t...........
0 .............t...........
1 ............tt...........
2 ...........tttttttt......
3 ..........tttttttttt.....
4 ...........ttttttttt.....
5 ...........ttt.tttt......
6 r.......r.rt...t.tt......
7 .........................
8 .........................
9 .............r...........
0 .........................
1 .....r...................
2 .....r.............r....r
3 r....rr...............rr.
4 rr...r.r............r.r..

Turn = 210.
  0123456789012345678901234
0 ....................r....
1 .........................
2 ........................r
3 .........................
4 .........................
5 .........................
6 .........................
7 .........................
8 .........................
9 .............t...........
0 .............t...........
1 ............tt...........
2 ...........tttttttt.....r
3 r....r....tttttttttt.....
4 .r.........ttttttttt.....
5 ...........ttt.tttt......
6 ...........t...t.tt......
7 r........r..............r
8 ..........r..............
9 .......................r.
0 r....r...................
1 .....rr.................r
2 rr.............r.........
3 .........................
4 r.........r.r..r.........

Turn = 220.
  0123456789012345678901234
0 ........................r
1 .........................
2 .........................
3 .....r...................
4 .r......................r
5 .........................
6 .........................
7 ........................r
8 ...................r.....
9 .............t...........
0 .............t...........
1 ............tt...........
2 .r....r....tttttttt......
3 ..........tttttttttt.....
4 ...........ttttttttt.....
5 ...........ttt.tttt......
6 ...........t...t.tt......
7 ..................t......
8 ....r...r...........r....
9 .................r.......
0 ....r..r.......r.........
1 .........................
2 ........................r
3 r........................
4 .rr.rr................r..

Turn = 230.
  0123456789012345678901234
0 ..r........r.............
1 .................r.......
2 .r....r............r.....
3 ...................r.....
4 .........................
5 .........................
6 .........................
7 .........................
8 .............t...........
9 .............t...........
0 ....r..r.....t...........
1 ............tt...........
2 ...........tttttttt......
3 ..........tttttttttt.....
4 ...........ttttttttt.....
5 .rr........ttt.tttt......
6 ...........t...t.tt......
7 ..................t......
8 r.................r.r....
9 .......r.................
0 .........................
1 .......................r.
2 ........................r
3 r....r...................
4 ......r.....r............

Turn = 240.
  0123456789012345678901234
0 ....r..r.............r...
1 ....r..r.................
2 .........r...............
3 .........r...............
4 .........................
5 .rr......................
6 .....rr..................
7 .........................
8 r............t...........
9 .............t...........
0 .............t...........
1 ............tt...........
2 ...........tttttttt......
3 r....r....tttttttttt.....
4 ...........ttttttttt.....
5 ...........ttt.tttt......
6 ...........t...t.tt......
7 r.........r.......t......
8 ..........rr.............
9 .........................
0 .........................
1 .........................
2 .........................
3 .........................
4 ....r............r...r...

Turn = 250.
  0123456789012345678901234
0 r.....r.....r............
1 rr.......................
2 rr.......................
3 r........................
4 r........................
5 .........................
6 ........................r
7 r........................
8 .......r.....t...........
9 r............t...........
0 r............t...........
1 ............tt...........
2 ...........tttttttt......
3 ..........tttttttttt.....
4 ..........tttttttttt.....
5 ...........ttt.tttt......
6 ......r....t...t.tt......
7 ..................t......
8 rr.......................
9 .........................
0 .........................
1 .........................
2 .........................
3 .........................
4 ....r..r...r.............

Turn = 260.
  0123456789012345678901234
0 r..r............r.....r..
1 .......r.................
2 .....r...................
3 r........................
4 ......r..................
5 .........................
6 .........................
7 ...r.....................
8 .............t...........
9 .............t...........
0 .r.......r...t...........
1 r.r.........tt...........
2 r..........tttttttt......
3 ..........tttttttttt.....
4 ..........tttttttttt.....
5 ...........ttt.tttt......
6 ...........t...t.tt.....r
7 ..................t......
8 .......r.................
9 ......r..................
0 .........................
1 ..r......................
2 .r.......................
3 .........................
4 ...........r.............

Turn = 270.
  0123456789012345678901234
0 .............r..........r
1 ...r.............r.......
2 r..............r.........
3 ........................r
4 ................r........
5 .........................
6 .........................
7 .............t...........
8 .............t...........
9 ......r......t...........
0 ............r.....r.r....
1 .........r.r.t...........
2 ..........rtttttttt......
3 ..........tttttttttt.....
4 ..........tttttttttt.....
5 ...........ttt.tttt......
6 ...........t...t.tt......
7 ..................t......
8 r........................
9 .........................
0 .........................
1 .........................
2 .......r.................
3 .........................
4 r.........r..........r..r

Turn = 280.
  0123456789012345678901234
0 ......r................rr
1 .............r...........
2 ...........r............r
3 ............r...........r
4 .........................
5 .........................
6 .......................r.
7 .............t...........
8 .............t..........r
9 .............t..........r
0 .........................
1 ...........t.t...........
2 r.........ttttttttt......
3 ..........tttttttttt....r
4 ..........tttttttttt.....
5 ...........ttt.tttt......
6 r..........t...t.tt......
7 ..................t......
8 ........................r
9 .........................
0 .........................
1 ......r..................
2 .................r.......
3 .........................
4 ...................rr....

Turn = 290.
  0123456789012345678901234
0 ......r.........r.......r
1 ......................r.r
2 .r.............r..r....r.
3 r........................
4 .........................
5 .........................
6 .........................
7 .............t...........
8 .............t...........
9 .............t.r.........
0 ........................r
1 ...........t.t...........
2 ..........ttttttttt......
3 ..........tttttttttt.....
4 ..........ttttttttttr....
5 ...........ttt.ttrtt.....
6 ...........t...t.tt......
7 ..................t......
8 .........................
9 .........................
0 r........................
1 ................r........
2 r........................
3 .........................
4 ..........r....r.........

Turn = 300.
  0123456789012345678901234
0 ..r...r..................
1 ...............r........r
2 .....r..r...............r
3 .........................
4 ....................rr...
5 .........................
6 .........................
7 .............t...........
8 .............t...........
9 .............tt..........
0 r........................
1 ...........t.t...........
2 ..........ttttttttt....r.
3 r.........tttttttttt.....
4 ..........tttttttttt.....
5 ...........ttt.ttttt.....
6 ...........t...t.tt......
7 ..................t......
8 .........................
9 .........................
0 ........................r
1 ....r....................
2 .........................
3 .........................
4 ...r.rr..................

Turn = 310.
  0123456789012345678901234
0 ..........r.r...........r
1 .....r...................
2 ...............r.........
3 r........................
4 ...........r.............
5 .........................
6 r........................
7 .............t...........
8 .............t...........
9 .............tt.........r
0 ........................r
1 ....r......t.t...........
2 ..........ttttttttt......
3 ..........tttttttttt.....
4 ......r...tttttttttt.....
5 ...........ttt.ttttt.....
6 ...........t...t.tt......
7 .....r............t......
8 .........................
9 .........................
0 r........................
1 .........................
2 r......................r.
3 r........................
4 .........................

Turn = 320.
  0123456789012345678901234
0 ....................r.r..
1 .........................
2 .....r...................
3 .........................
4 .r....r..................
5 rr.......................
6 .........................
7 .....r.......t...........
8 .............t...........
9 .............ttr.........
0 ...............r........r
1 ...........t.t...........
2 ..........ttttttttt......
3 r.........tttttttttt.....
4 ..........tttttttttt.....
5 ...........ttt.ttttt.....
6 r..........t...t.tt......
7 ..................t......
8 .........................
9 ........................r
0 .........................
1 .........................
2 ........r................
3 ..........r..............
4 ...r.....................

Turn = 330.
  0123456789012345678901234
0 .r.....r.................
1 .........................
2 .........................
3 .........................
4 .......r.................
5 .........................
6 r......................r.
7 .............t..........r
8 .............t...........
9 .............tt..........
0 .....r...................
1 ...........t.t..t........
2 ..........ttttttttt......
3 r.........tttttttttt.....
4 ..........ttttttttttr....
5 r..........ttt.ttttrr....
6 ...........t...t.tt......
7 ..................t......
8 .........................
9 .........................
0 .........................
1 .........................
2 ..................r......
3 r...................r....
4 .r...........r...........

Turn = 340.
  0123456789012345678901234
0 .................r.......
1 .........................
2 .........................
3 .........................
4 .................r.......
5 .........................
6 .........................
7 .............t...........
8 r............t...........
9 .............tt..........
0 .........................
1 ...........t.t..t........
2 ..........ttttttttt......
3 ..........tttttttttt.....
4 r.........ttttttttttr....
5 ...........ttt.ttttrr....
6 r..........t...t.tt....r.
7 ..................t.....r
8 .........................
9 ........................r
0 .........................
1 rr.......................
2 .........................
3 .r..................r....
4 ...........r...........r.

Turn = 350.
  0123456789012345678901234
0 .........................
1 .........................
2 ........................r
3 .........................
4 .........................
5 .........................
6 ........................r
7 .............t...........
8 .............t...........
9 .............tt..........
0 .........................
1 ...........t.t..t........
2 ..........ttttttttt......
3 ..........tttttttttt.....
4 ..........ttttttttttr....
5 ...........ttt.ttttrr....
6 r..r.......t...t.tt......
7 ..................t......
8 ................r........
9 .......r.......r.........
0 .........................
1 ...........r.............
2 .....................r...
3 ..........rr............r
4 r....................r...

Turn = 360.
  0123456789012345678901234
0 .........................
1 .........................
2 .........................
3 .........................
4 .........................
5 .........................
6 .........................
7 .............t...........
8 .............t...........
9 .............tt..........
0 .........................
1 ...........t.t..t........
2 ..........ttttttttt.....r
3 ..........tttttttttt.....
4 ..........ttttttttttr....
5 ...........rtt.ttttrr....
6 ...........r...t.tt.....r
7 ..........r.......t......
8 ......r..................
9 .......................r.
0 ..............r..........
1 ....r.........r......r...
2 .....r.....r.............
3 ........................r
4 ............r...r........

Turn = 370.
  0123456789012345678901234
0 .........................
1 .........................
2 .........................
3 .........................
4 .........................
5 .........................
6 .........................
7 .............t...........
8 .............t...........
9 .............tt........r.
0 .........................
1 ...........t.t..t........
2 ..........ttttttttt......
3 ..........tttttttttt.....
4 ..........ttttttttttr....
5 .........r.ttt.ttttrr....
6 ........r..t...t.tt......
7 ..................t......
8 .....................r...
9 .....................r...
0 .........................
1 r........................
2 .......................rr
3 .........r............r..
4 ..r.......r...........r.r

Turn = 380.
  0123456789012345678901234
0 .......................r.
1 .........................
2 .........................
3 .........................
4 .........................
5 .........r...............
6 ........r................
7 .............t...........
8 .............t.......r...
9 .............tt......r...
0 .........................
1 ...........t.t..t........
2 ..........ttttttttt....r.
3 .........rtttttttttt.....
4 ..........ttttttttttr....
5 ...........ttt.ttttrr....
6 ...........t...t.tt....rr
7 r.................t......
8 .........................
9 .........................
0 .................r.......
1 ................r........
2 .........................
3 .........................
4 ......r........r.........

Turn = 390.
  0123456789012345678901234
0 .......r.....r......r....
1 ......................r..
2 .......................r.
3 .........r...............
4 .........r...............
5 .........................
6 .......................rr
7 r............t...........
8 .............t...........
9 .............tt..........
0 .........................
1 ...........t.t..t........
2 ..........ttttttttt......
3 ..........tttttttttt.....
4 ..........ttttttttttr....
5 ...........ttt.ttttrr....
6 ...........t...tttt......
7 ............r.....t......
8 .........................
9 .........................
0 .........................
1 .........................
2 .........................
3 .........................
4 ......r........r.........

Turn = 400.
  0123456789012345678901234
0 ...r......r.........r....
1 ...r.....................
2 r.............r....r.....
3 r........................
4 ...................r.....
5 .........................
6 .........................
7 .............t...........
8 .............t..........r
9 .............tt..........
0 .........................
1 ...........t.t..t........
2 ..........ttttttttt......
3 ..........tttttttttt.....
4 ..........ttttttttttr....
5 ...........ttt.ttttrr....
6 ...........t...tttt......
7 ..r...............t......
8 .........................
9 .........................
0 .........................
1 .........................
2 .........................
3 .........................
4 r.......................r

Turn = 410.
  0123456789012345678901234
0 r......r..r.............r
1 .............r...........
2 .........r...............
3 .........................
4 ......r..................
5 .........................
6 r........................
7 .............t...........
8 .............t...........
9 .............tt..........
0 .........................
1 ...........t.t..t........
2 r.........ttttttttt......
3 ..........tttttttttt.....
4 ..........ttttttttttr....
5 ...........ttt.ttttrr....
6 r..........t...tttt......
7 ..................t.....r
8 .......................r.
9 .........................
0 .........................
1 .........................
2 .........................
3 r........................
4 .........................

Turn = 420.
  0123456789012345678901234
0 rr.......................
1 .......................r.
2 r........................
3 .........................
4 .........................
5 .........................
6 .........................
7 .............t...........
8 .............t..........r
9 r............tt..........
0 .........................
1 ...........t.t..t........
2 ..........ttttttttt......
3 ..r.......tttttttttt.....
4 ...r.rr...ttttttttttr....
5 ...........ttt.ttttrr....
6 ...........t...tttt......
7 ..................t......
8 ..................t......
9 .........................
0 .........................
1 .........................
2 .........................
3 .........................
4 ........r..............r.

Turn = 430.
  0123456789012345678901234
0 ........r.r..............
1 ........r................
2 .........................
3 .........................
4 .........................
5 .........................
6 .........................
7 .............t...........
8 .............t...........
9 .............tt.........r
0 .........................
1 ...........ttt..t........
2 ..........rrrtttttt......
3 .........rt.tttttttt.....
4 ..........ttttttttttr....
5 ...........ttt.ttttrr....
6 ...........t...tttt......
7 ..................t......
8 ..................t.....r
9 r........................
0 .........................
1 .........................
2 ....r..........r.........
3 .....r...................
4 ......r..........r.......

Turn = 440.
  0123456789012345678901234
0 ..................r.r....
1 ..................r......
2 ...........r.............
3 ...........r.............
4 .........................
5 .........r...............
6 .........................
7 .............t...........
8 .............t...........
9 .............tt..........
0 .........................
1 ............tt..t........
2 ............ttttttt......
3 ...........ttttttttt.....
4 ..........ttttttttttr....
5 ..........tttt.ttttrr....
6 ......r....t...tttt......
7 .....r...........rr......
8 ..................t......
9 ........................r
0 .........................
1 .r.....................r.
2 .........................
3 .........................
4 r.......................r

Turn = 450.
  0123456789012345678901234
0 .............r....r.r....
1 ....r....................
2 .........................
3 .........................
4 .........................
5 .......................rr
6 ......r..................
7 .....r.......t...........
8 .............t...........
9 .............tt..........
0 .........................
1 .r..........tt..t......r.
2 ............ttttttt......
3 ...........ttttttttt.....
4 ..........ttttttttttr....
5 r.........tttt.ttttrr....
6 ...........t...tttt......
7 .................tt......
8 ..................t......
9 .........................
0 .........................
1 .................r.......
2 .................r.......
3 .........................
4 .........................

Turn = 460.
  0123456789012345678901234
0 ...rr....r............rr.
1 .r.......................
2 .........................
3 .........................
4 .........................
5 r........................
6 .........................
7 .............t...........
8 .............t.....r.....
9 .............tt.r........
0 .........................
1 ............tt..t........
2 ............ttttttt.....r
3 ...........ttttttttt.....
4 ..........ttttttttttr....
5 ..........tttt.ttttrr...r
6 ...........t...tttt......
7 .................tt......
8 ..................t......
9 .........................
0 .........................
1 .......r.................
2 .......r.................
3 .........................
4 .........................

Turn = 470.
  0123456789012345678901234
0 ..r..........r..r.r......
1 .........................
2 .........................
3 .........................
4 .........................
5 .........................
6 ..r......................
7 ...r.........t...........
8 .............t...........
9 .............tt..........
0 ......................r..
1 ............tt.tt........
2 ............tttttttt.....
3 ...........ttttttttt.....
4 ..........ttttttttttr....
5 ..........tttt.ttttrr....
6 ...........t...tttt......
7 .................tt......
8 ..................t......
9 .........................
0 .........................
1 .r.......................
2 r.......................r
3 .........................
4 ........................r

Turn = 480.
  0123456789012345678901234
0 ............r..........rr
1 .........................
2 .........................
3 .........................
4 .........................
5 .........................
6 .........................
7 .............t...........
8 .............t...........
9 .............tt..........
0 ................r........
1 ............tt.tt........
2 ............tttttttt.....
3 ...........ttttttttt.....
4 ..........ttttttttttr....
5 ..........tttt.ttttrr....
6 ..r........t...tttt......
7 ...r.............tt......
8 ..................t......
9 .........................
0 ......................r..
1 ...........r.............
2 .........................
3 .........................
4 .......r......r....r.....

Turn = 490.
  0123456789012345678901234
0 ......................r..
1 .........................
2 .........................
3 .........................
4 .........................
5 .........................
6 .........................
7 .............t..........r
8 .............t...........
9 .............tt........r.
0 ..............t..........
1 ............tt.tt........
2 ............tttttttt.....
3 ...........ttttttttt.....
4 ..........ttttttttttr....
5 ..........tttt.ttttrr....
6 ...........t...tttt......
7 .................tt......
8 ..................t......
9 .........................
0 ..........r..............
1 ............r........r...
2 .........................
3 .........................
4 .r...r.....r.....r.......

Turn = 500.
  0123456789012345678901234
0 .........................
1 .........................
2 .........................
3 .........................
4 .........................
5 .........................
6 .........................
7 .............t..........r
8 .............t...........
9 .............tt..........
0 ..........r...t..........
1 ..........r.tt.tt........
2 ............tttttttt.....
3 ...........ttttttttt.....
4 ...........tttttttttr....
5 ...........ttt.ttttrr....
6 r.....r....tt..tttt......
7 .................tt.....r
8 ..................t......
9 .........r.............r.
0 .........................
1 .........................
2 .........................
3 ........................r
4 ...r...r.................

Turn = 510.
  0123456789012345678901234
0 ..........r..............
1 ..........r..............
2 .........................
3 .........................
4 .........................
5 .........................
6 r........................
7 .............t...........
8 .............t...........
9 .........r...tt..........
0 ..............t..........
1 ............tt.tt........
2 ............tttttttt.....
3 ...........ttttttttt.....
4 ...........tttttttttr....
5 ...........ttt.ttttrr....
6 ...........tt..tttt......
7 .................tt.....r
8 r.................t......
9 r........................
0 .........................
1 .................r.......
2 .........................
3 .........................
4 .r.................r....r

Turn = 520.
  0123456789012345678901234
0 .r.......r.........r.....
1 ...................r.....
2 .........................
3 .........................
4 .........................
5 .........................
6 .........................
7 .............t...........
8 .............t...........
9 .............tt..........
0 ..............t..........
1 ............tt.tt........
2 ............tttttttt.....
3 ...........ttttttttt.....
4 ...........tttttttttr....
5 ...........ttt.ttttrr....
6 ...........tt..tttt......
7 .................tt......
8 ..................t......
9 ..........r..............
0 .........................
1 .......r.................
2 .........................
3 ...........r............r
4 ..r.......r.....r........

Turn = 530.
  0123456789012345678901234
0 .r...................r...
1 .........................
2 .........................
3 .........................
4 ......r..................
5 ........................r
6 .........................
7 .............t...........
8 .............t...........
9 .............tt..........
0 ..............t..........
1 ............tt.tt........
2 ............tttttttt.....
3 ...........ttttttttt....r
4 ...........tttttttttr....
5 ...........ttt.ttttrr....
6 .........r..t..tttt......
7 .........r.......tt......
8 ..................t......
9 r.....r...........t......
0 .........................
1 .........................
2 .........................
3 .........................
4 ...r..r..................

Turn = 540.
  0123456789012345678901234
0 ...........r.............
1 .........................
2 .........................
3 .........................
4 .........................
5 .........................
6 .........................
7 .............t...........
8 r............t...........
9 r............tt..........
0 ..............t...r......
1 ............tt.tt........
2 ............tttttttt.....
3 ...........ttttttttt....r
4 ......r....tttttttttr....
5 ...........ttt.ttttrr....
6 r...........t..tttt......
7 r................tt......
8 ..................t......
9 ..................t......
0 r........................
1 .........................
2 .........................
3 .........................
4 r......r.................

Turn = 550.
  0123456789012345678901234
0 .r.......................
1 r........................
2 .........................
3 .........................
4 .........................
5 .........................
6 r........................
7 r............t...........
8 .........r...t...........
9 .............tt..........
0 r.............t.t........
1 ............tt.tt........
2 ............tttttttt.....
3 ...........ttttttttt.....
4 ...........tttttttttr....
5 ...........ttt.ttttrr....
6 ............t..tttt......
7 .................tt......
8 ..................t......
9 ..................t......
0 .........................
1 .........................
2 .........................
3 ........................r
4 ......r...r.....r........

Turn = 560.
  0123456789012345678901234
0 .......r.................
1 .........................
2 ......r..................
3 ......r..................
4 ....r....................
5 ....r....................
6 .........................
7 .............t...........
8 ..............t.....r....
9 .............tt..........
0 ..............t.t........
1 ............tt.tt........
2 ............tttttttt.....
3 ...........ttttttttt.....
4 ...........tttttttttr....
5 ...........ttt.ttttrr....
6 ............t..tttt......
7 .................tt......
8 ..................t......
9 ..................t......
0 .........................
1 ........................r
2 .........................
3 .........................
4 ...............r....r...r

Turn = 570.
  0123456789012345678901234
0 .................r.......
1 .........................
2 ................r........
3 ................r.......r
4 ..............r..........
5 ..............r..........
6 .........................
7 .............t...........
8 ..............t..........
9 .............tt..........
0 ..............t.t........
1 ............tt.tt.......r
2 ............tttttttt.....
3 ...........ttttttttt.....
4 ...........tttttttttr....
5 ...........ttt.ttttrr...r
6 ............t..tttt......
7 .................tt......
8 ..................t......
9 ..................t.....r
0 .........................
1 .........................
2 .........................
3 .........................
4 ........................r

Turn = 580.
  0123456789012345678901234
0 ...................rr....
1 .........................
2 ........................r
3 ........................r
4 .......................r.
5 .......................rr
6 ........................r
7 .............t...........
8 ..............t..........
9 .............tt.........r
0 ..............t.t........
1 ............tt.tt........
2 ............tttttttt.....
3 ...........ttttttttt.....
4 ...........tttttttttr....
5 ...........ttt.ttttrr....
6 ............t..tttt......
7 .................tt......
8 ..................t......
9 ..................t......
0 .........................
1 .........................
2 .........................
3 .........................
4 ...............r.........

Turn = 590.
  0123456789012345678901234
0 .........rr...........r.r
1 .........................
2 ..............r..........
3 ..............r..........
4 ..............r..........
5 ..............rr.........
6 .........................
7 .............t...........
8 ..............t..........
9 .............tt..........
0 ..............t.t........
1 ............tt.tt........
2 ............tttttttt.....
3 ...........ttttttttt.....
4 ...........tttttttttr....
5 ...........ttt.ttttrr....
6 ............t..tttt......
7 .................tt......
8 ..................t......
9 ..................t......
0 .........................
1 .........................
2 .........................
3 .........................
4 .....r...................

Turn = 600.
  0123456789012345678901234
0 rr..........r.r..........
1 .........................
2 ....r....................
3 ....r....................
4 ....r....................
5 ....rr...................
6 .........................
7 .............t...........
8 ..............t..........
9 .............tt..........
0 ..............t.t........
1 ............tt.tt........
2 ............tttttttt.....
3 ...........ttttttttt.....
4 ...........tttttttttr....
5 ...........ttt.ttttrr....
6 ............t..tttt......
7 .................tt......
8 ..................t......
9 ..................t......
0 .........................
1 .........................
2 r........................
3 .........................
4 .........................

Turn = 610.
  0123456789012345678901234
0 .r..rr...................
1 .........................
2 .....r...................
3 .r.....r.................
4 ..r......................
5 .........................
6 .........................
7 .............t...........
8 ..............t..........
9 .............tt..........
0 r.r...........t.t........
1 ............tt.tt........
2 r...........tttttttt.....
3 ...........ttttttttt.....
4 ...........tttttttttr....
5 ...........ttt.ttttrr....
6 ............t..tttt......
7 .................tt......
8 ..................t......
9 ..................t......
0 .........................
1 .........................
2 .........................
3 .........................
4 .........................

Turn = 620.
  0123456789012345678901234
0 ..r......................
1 .........................
2 .........................
3 .................r.......
4 r........................
5 .........................
6 .........................
7 r............t...........
8 ..............t..........
9 .............tt..........
0 .....r........t.t........
1 ....r...r...tt.tt........
2 .....r......tttttttt.....
3 ...........ttttttttt.....
4 ...........tttttttttr....
5 ...........ttt.ttttrr....
6 ............t..tttt......
7 .................tt......
8 ..................t......
9 ..................t......
0 r.r......................
1 .........................
2 .........................
3 .........................
4 .........................

Turn = 630.
  0123456789012345678901234
0 .........................
1 .........................
2 .........................
3 .........................
4 ............r............
5 ........................r
6 .........................
7 r............t...........
8 ..............t..........
9 .............tt..........
0 ..............t.t........
1 ............t.ttt........
2 ............tttttttt.....
3 ...........ttttttttt.....
4 r..........tttttttttr....
5 ...........ttt.ttttrr....
6 ............t..tttt......
7 r................tt......
8 ..................t......
9 ..................t......
0 .....r...................
1 ....r....................
2 .....r...................
3 .........................
4 .....r.r.................

Turn = 640.
  0123456789012345678901234
0 .................r.......
1 .........................
2 .........................
3 .........................
4 .........................
5 .........................
6 .........................
7 .............t...........
8 ..............t..........
9 .............tt..........
0 ..............t.t........
1 ............t.ttt........
2 ............tttttttt.....
3 ...........ttttttttt.....
4 ...........tttttttttr....
5 ...........ttt.ttttrr...r
6 ............t..tttt......
7 r................tt......
8 ..................t......
9 ..................t......
0 .........................
1 .........................
2 .r.......................
3 r..........r.............
4 r...........r..r.r.......

Turn = 650.
  0123456789012345678901234
0 .......................r.
1 .........................
2 .........................
3 .........................
4 .........................
5 .........................
6 .........................
7 .............t...........
8 ..............t..........
9 .............tt..........
0 ..............t.t........
1 ............t.ttt........
2 .r..........tttttttt.....
3 ...........ttttttttt.....
4 ...........tttttttttr....
5 ...........ttt.ttttrr....
6 ............t..tttt......
7 .................tt......
8 ..................t......
9 ..................t......
0 .........................
1 .........................
2 .........................
3 ..........r..........r.r.
4 ..r.......r...........rrr

Turn = 660.
  0123456789012345678901234
0 .............r...........
1 .........................
2 .r.......................
3 .........................
4 .........................
5 .........................
6 .........................
7 .............t...........
8 ..............t..........
9 .............tt..........
0 ..............t.t........
1 ............t.ttt........
2 ............tttttttt.....
3 ...........ttttttttt.....
4 ...........tttttttttr...r
5 ...........ttt.ttttrr.r..
6 ............t..tttt......
7 .................tt...rr.
8 ..................t......
9 ..................t......
0 .........................
1 .........................
2 .........................
3 ....................r....
4 ............r.......r...r

Turn = 670.
  0123456789012345678901234
0 ...rr....................
1 .........................
2 .........................
3 .........................
4 ........................r
5 ......................r..
6 .........................
7 .............t........rr.
8 ..............t..........
9 .............tt..........
0 ..............t.t........
1 ............t.ttt........
2 ............tttttttt.....
3 ...........ttttttttt.....
4 ...........tttttttttr....
5 ...........ttt.ttttrr...r
6 ............t..tttt......
7 .................tt......
8 ..................t......
9 ..................t......
0 .........................
1 .........................
2 .........................
3 ....................r.r..
4 .....................r...

Turn = 680.
  0123456789012345678901234
0 ..................rr.r...
1 ...................r.....
2 .........................
3 .........................
4 .........................
5 ........................r
6 .........................
7 .............t...........
8 ..............t..........
9 .............tt..........
0 ...rr.........t.t........
1 ............t.ttt........
2 ............tttttttt.....
3 ...........ttttttttt..r..
4 ...........tttttttttrr...
5 ...........ttt.ttttrr....
6 ............t..tttt......
7 .................tt......
8 ..................t......
9 ..................t......
0 .........................
1 .........................
2 .........................
3 ..........r..............
4 .........................

Turn = 690.
  0123456789012345678901234
0 ........rr.r........r....
1 .........r...............
2 .........................
3 ......................r..
4 .....................r...
5 .........................
6 .........................
7 .............t...........
8 ..............t..........
9 .............tt..........
0 ..............t.t........
1 ............t.ttt........
2 ............tttttttt.....
3 ...........ttttttttt.....
4 ...........tttttttttr....
5 ...........ttt.ttttrr....
6 ............t..tttt......
7 .................tt......
8 ..................t......
9 ..................t......
0 ...rr....................
1 .........................
2 .........................
3 r........................
4 .........................

Turn = 700.
  0123456789012345678901234
0 rr........r............r.
1 rr......................r
2 .........................
3 .........................
4 .........................
5 .........................
6 .........................
7 .............t...........
8 ..............t..........
9 .............tt..........
0 ..............t.t........
1 ............t.ttt........
2 ............tttttttt.....
3 ...........ttttttttt.....
4 ...........tttttttttr....
5 ...........ttt.ttttrr....
6 ............t..tttt......
7 .................tt......
8 ..................t......
9 ..................t......
0 .........................
1 .........................
2 ...r.....................
3 .........................
4 .r...r...................

Turn = 710.
  0123456789012345678901234
0 ..r......................
1 .......r.................
2 ...r.....................
3 .........................
4 .........................
5 .........................
6 .........................
7 .............t...........
8 ..............t..........
9 .r...........tt..........
0 ..............t.t......r.
1 .r..........t.ttt.......r
2 ...r........tttttttt.....
3 ...........ttttttttt.....
4 ...........tttttttttr....
5 ...........ttt.ttttrr....
6 r...........t..tttt......
7 .................tt......
8 ..................t......
9 ..................t......
0 .........................
1 .........................
2 .........................
3 .........................
4 ...............r.........

Turn = 720.
  0123456789012345678901234
0 .........................
1 .................r.......
2 .........................
3 .........................
4 .........................
5 .........................
6 r........................
7 r......r.....t...........
8 ........r.....t..........
9 .............tt..........
0 ..............t.t........
1 ............t.ttt........
2 ............tttttttt.....
3 ...........ttttttttt.....
4 ...........tttttttttr....
5 ...........ttt.ttttrr....
6 ............t..tttt......
7 .................tt......
8 ..................t......
9 .r................t......
0 .......................r.
1 .r......................r
2 .........................
3 .........................
4 ........................r

Turn = 730.
  0123456789012345678901234
0 r.......................r
1 r........................
2 .........................
3 ..............r..........
4 .........................
5 .........................
6 .........................
7 ............tt...........
8 .............t...........
9 .............tt..........
0 ..............t.t........
1 ............t.ttt........
2 ............tttttttt.....
3 ...........ttttttttt.....
4 ...........tttttttttr....
5 ...........ttt.ttttrr...r
6 ............t..tttt......
7 .................tt......
8 ..................t......
9 ..................t......
0 .........................
1 .........................
2 .......................r.
3 ......r..................
4 ...r...................r.

Turn = 740.
  0123456789012345678901234
0 .......r.r....r..........
1 ..........r..............
2 .........................
3 .........................
4 .........................
5 ........................r
6 .........................
7 ............tt...........
8 .............t...........
9 .............tt..........
0 ..............t.t........
1 ............t.ttt........
2 ............tttttttt...r.
3 ...........ttttttttt.....
4 ...........tttttttttr....
5 ...........ttt.ttttrr....
6 ............t..tttt......
7 .................tt......
8 ..................t......
9 ..................t......
0 .........................
1 .........................
2 .........................
3 ................r........
4 .............rr..........

Turn = 750.
  0123456789012345678901234
0 ......r.............r....
1 .........................
2 .......................r.
3 .........................
4 .........................
5 .........................
6 ..........r..............
7 ............tt...........
8 .............t...........
9 .............tt..........
0 .........r....t.t........
1 ..........r.t.ttt........
2 ............tttttttt.....
3 ...........ttttttttt.....
4 ...........tttrtttttr....
5 ...........ttttttttrr....
6 ............t..tttt......
7 .................tt......
8 ..................t......
9 ..................t......
0 .........................
1 .........................
2 .........................
3 .........................
4 .....r..................r

Turn = 760.
  0123456789012345678901234
0 ..........r.........r....
1 .........................
2 .........................
3 r........................
4 .........................
5 .........................
6 .........................
7 ............tt...........
8 .............t...........
9 .............tt..........
0 ..............t.t........
1 ............t.ttt........
2 ............tttttttt.....
3 ...........ttttttttt.....
4 ..........ttttttttttr....
5 ..........tttttttttrr....
6 ............t..tttt.....r
7 .................tt......
8 ..................t......
9 ..................t......
0 r........r...............
1 .........................
2 .........................
3 .........................
4 .........................

Turn = 770.
  0123456789012345678901234
0 r.........r..............
1 .........................
2 .........................
3 .........................
4 .........................
5 .........................
6 ........................r
7 ............tt...........
8 .............t...........
9 .............tt..........
0 ..............t.t........
1 .r..........t.ttt........
2 r...........tttttttt.....
3 ...........ttttttttt.....
4 ..........ttttttttttr....
5 ..........tttttttttrr....
6 ............t..tttt......
7 .................tt......
8 ..................t......
9 ..................t......
0 .........................
1 .........................
2 .........................
3 .........................
4 ....r....................

Turn = 780.
  0123456789012345678901234
0 r....................r...
1 .........................
2 .........................
3 .........................
4 .........................
5 .........................
6 .........................
7 ............tt...........
8 .............t...........
9 r............tt..........
0 ..............t.t........
1 ...........rt.ttt........
2 ............tttttttt.....
3 ...........ttttttttt.....
4 ..........ttttttttttr....
5 ..........tttttttttrr....
6 ............t..tttt......
7 .................tt......
8 ..................t......
9 ..................t......
0 r........................
1 r........................
2 .........................
3 .........................
4 .........................

Turn = 790.
  0123456789012345678901234
0 ........r..r.............
1 .........................
2 .........................
3 .........................
4 .........................
5 .........................
6 .........................
7 ............tt...........
8 .............t...........
9 .............tt..........
0 .............tr.t........
1 ..........r.r.rtt........
2 ..........r..t.ttttt.....
3 .....r......tttttttt.....
4 ..........ttttttttttr....
5 r.........tttttttttrr....
6 ....r.......t..tttt......
7 .................tt......
8 r.................t......
9 ..................t......
0 .........................
1 .........................
2 .........................
3 .........................
4 .........................

Turn = 800.
  0123456789012345678901234
0 ..............r..........
1 .........................
2 .........................
3 .........................
4 .........................
5 .........................
6 ..........r..............
7 ............tt...........
8 .............t...........
9 .............tt..........
0 .............tt.t........
1 r.r...........ttt........
2 r............t.ttttt.....
3 ............tttttttt.....
4 ..........ttttttttttr....
5 ..........tttttttttrr....
6 ...........tt..tttt......
7 r................tt......
8 ..................t......
9 ..................t......
0 .........................
1 .........................
2 .........................
3 .r.......................
4 .r.......................

Turn = 810.
  0123456789012345678901234
0 ........................r
1 .........................
2 .........................
3 .........................
4 r........................
5 .........................
6 .........................
7 ............tt...........
8 .............t...........
9 .............tt..........
0 .............tt.t........
1 ..............ttt........
2 .............t.ttttt.....
3 ..........r.tttttttt.....
4 .........rrtttttttttr....
5 ............tttttttrr....
6 ........r...t..tttt......
7 ...........r.....tt......
8 ..................t......
9 .r................t......
0 .........................
1 r........................
2 .........................
3 ...........r.............
4 ..r........r.............

Turn = 820.
  0123456789012345678901234
0 .....r...................
1 .........................
2 .........................
3 .........................
4 .........................
5 ............r............
6 .........................
7 .............t...........
8 ............tt...........
9 .............tt.........r
0 .............tt.t........
1 ..............ttt........
2 .............t.ttttt.....
3 ...........t.ttttttt.....
4 rr.........tttttttttr....
5 ............tttttttrr....
6 ............t..tttt......
7 r................tt......
8 ..................t......
9 r.................t......
0 .........................
1 .........................
2 r........................
3 ..........r..........r...
4 .............r.......r...

Turn = 830.
  0123456789012345678901234
0 .........................
1 .........................
2 .........................
3 ...........rr............
4 .........................
5 .........................
6 r........................
7 .............t...........
8 ............tt...........
9 .............tt..........
0 .............tt.t........
1 ..............ttt........
2 .............t.ttttt.....
3 ..........rt.ttttttt.....
4 ...........tttttttttr....
5 ............tttttttrr....
6 ............t..tttt......
7 .................tt......
8 ........r.........t.....r
9 ......r..r........t.....r
0 .........................
1 .........................
2 r........................
3 .....................r...
4 .......................r.

Turn = 840.
  0123456789012345678901234
0 .r.......................
1 .........................
2 .........................
3 ..........r..............
4 .........................
5 .........................
6 .........................
7 ............tt...........
8 ............tt...........
9 .............tt.........r
0 .............tt.t........
1 ..............ttt........
2 ...........t.t.ttttt.....
3 ...........t.ttttttt.r...
4 ...........tttttttttr....
5 ............tttttttrr....
6 ............t..tttt.....r
7 .................tt......
8 .................trt.....
9 ................rrr......
0 .........................
1 .........................
2 .........................
3 .........................
4 .....r...................

Turn = 850.
  0123456789012345678901234
0 ...........r....r.......r
1 .........................
2 .........................
3 .....................r...
4 .........................
5 .........................
6 ........................r
7 ............tt...........
8 ............tt...........
9 .............tt..........
0 .............tt.t........
1 ..............ttt........
2 ...........t.t.ttttt.....
3 ...........t.ttttttt.....
4 ...........tttttttttr....
5 ............tttttttrr....
6 ............t..tttt......
7 .................tt......
8 .................ttt.....
9 ..................t......
0 .........................
1 .................r.......
2 .........................
3 .........................
4 ..............rr.........

Turn = 860.
  0123456789012345678901234
0 ...................r.....
1 ..............r..........
2 ...................r....r
3 .........................
4 .........................
5 ....................r....
6 .........................
7 ............tt...........
8 ............tt...........
9 .............tt..........
0 .............tt.t........
1 ..............ttt........
2 ...........t.t.ttttt.....
3 ...........t.ttttttt.....
4 ...........tttttttttr....
5 ............tttttttrr....
6 ............t..tttt......
7 .................tt......
8 ...........r......tt.....
9 ...........r......t......
0 ...........r.............
1 .........................
2 .........................
3 .........................
4 .......r.................

Turn = 870.
  0123456789012345678901234
0 .........................
1 ....r....................
2 .........................
3 .........................
4 ........................r
5 .........................
6 .........................
7 ............tt...........
8 ............tt...........
9 .............tt..........
0 .............tt.t........
1 ..............ttt..r.....
2 ...........t.t.ttttrt...r
3 ...........t.ttttttt.....
4 ...........tttttttttr....
5 ............tttttttrr....
6 ............t..tttt......
7 .................tt......
8 .r................tt.....
9 .r................t......
0 .r.......................
1 .........................
2 r........................
3 .........................
4 .........................

Turn = 880.
  0123456789012345678901234
0 .........................
1 .........................
2 .........................
3 .........................
4 .........................
5 .........................
6 r........................
7 ............tt...........
8 ............tt...........
9 .............tt..........
0 .............tt.t........
1 ..............ttt...t....
2 ...........t.t.tttttt....
3 r..........t.ttttttt.....
4 r..........tttttttttr...r
5 ............tttttttrr....
6 ............t..tttt......
7 .................tt......
8 .......r..........tt.....
9 ..................t......
0 .......r.................
1 .........................
2 ........................r
3 .........................
4 .........................

Turn = 890.
  0123456789012345678901234
0 .........................
1 .........................
2 .........................
3 .........................
4 .........................
5 .........................
6 .........................
7 ............tt...........
8 ............tt...........
9 ......r......tt..........
0 ......r......tt.t........
1 ......r.......ttt...t....
2 ...........t.t.tttttt....
3 ...........t.ttttttt.....
4 ...........tttttttttr....
5 ............tttttttrr....
6 ............t..tttt......
7 .................tt......
8 .................rtt.....
9 ..................t......
0 .................r.......
1 .........................
2 .........................
3 .........................
4 .................r......r

Turn = 900.
  0123456789012345678901234
0 .........................
1 .........................
2 .........................
3 .........................
4 .........................
5 .........................
6 .........................
7 ............tt...........
8 ............tt...........
9 ............ttt..........
0 ............ttt.t........
1 .............tttt...t....
2 ...........t.t.tttttt....
3 ...........t.ttttttt.....
4 ...........tttttttttr....
5 ............tttttttrr....
6 ............t..tttt.....r
7 .................tt....r.
8 .................ttt.....
9 .........r...............
0 .........................
1 .........................
2 .........................
3 .........................
4 .......r.................

Turn = 910.
  0123456789012345678901234
0 .........................
1 .........................
2 .........................
3 .........................
4 .........................
5 .........................
6 ........................r
7 ............tt.........r.
8 ............tt...........
9 ............ttt..........
0 ............ttt.t........
1 .............tttt...t....
2 ...........t.t.tttttt....
3 ...........t.ttttttt.....
4 ...........tttttttttr....
5 ............tttttttrr....
6 ............t..tttt......
7 .................tt......
8 .................ttt.....
9 r........................
0 .........................
1 .........................
2 r........................
3 .........................
4 .........................

Turn = 920.
  0123456789012345678901234
0 .....................r..r
1 .........................
2 .........................
3 .........................
4 .........................
5 .........................
6 .........................
7 ............tt...........
8 ............tt...........
9 r...........ttt..........
0 ............ttt.t........
1 .............tttt...t....
2 r..........t.t.tttttt....
3 ...........t.ttttttt.....
4 ...........tttttttttr....
5 ............tttttttrr....
6 ............t..tttt......
7 .................tt......
8 .................ttt.....
9 .........................
0 .........................
1 .........................
2 .........................
3 .........................
4 .........................

Turn = 930.
  0123456789012345678901234
0 r..........r.............
1 .........................
2 r........................
3 .........................
4 .........................
5 .........................
6 .........................
7 ............tt...........
8 ............tt...........
9 ............ttt..........
0 ............ttt.t.......r
1 .............tttt...t....
2 ...........t.t.tttttt....
3 ...........t.ttttttt.....
4 ...........tttttttttr....
5 ............tttttttrr....
6 ............t..tttt......
7 .................tt......
8 .................ttt.....
9 .........................
0 .........................
1 .........................
2 .........................
3 .........................
4 .........................

Turn = 940.
  0123456789012345678901234
0 ....rr...................
1 ........r................
2 .........................
3 .........................
4 .........................
5 .........................
6 .........................
7 ............tt...........
8 ............tt...........
9 ............ttt..........
0 ............ttt.t........
1 .............tttt...t....
2 ...........t.t.tttttt....
3 ...........t.ttttttt.....
4 ...........tttttttttr....
5 ............tttttttrr....
6 ............t..tttt......
7 .................tt......
8 .................ttt.....
9 .........................
0 ........................r
1 .........................
2 .........................
3 .........................
4 .........................

Turn = 950.
  0123456789012345678901234
0 r........................
1 ..................r......
2 .........................
3 .........................
4 .........................
5 r........................
6 .........................
7 ............tt...........
8 ............tt...........
9 ............ttt..........
0 ............ttt.t........
1 .............tttt...t....
2 ...........t.t.tttttt....
3 ...........t.ttttttt.....
4 ...........tttttttttr....
5 ............tttttttrr....
6 ............t..tttt......
7 .................tt......
8 .................ttt.....
9 .........................
0 .........................
1 .........................
2 .........................
3 .........................
4 ...................r.....

Turn = 960.
  0123456789012345678901234
0 .........................
1 .........................
2 .........................
3 .........................
4 ........................r
5 .........................
6 .........................
7 ............tt...........
8 r...........tt...........
9 ............ttt..........
0 ............ttt.t........
1 .............tttt...t....
2 ...........t.t.tttttt....
3 ...........t.ttttttt.....
4 ...........tttttttttr....
5 r...........tttttttrr....
6 ............t..tttt......
7 .................tt......
8 .................ttt.....
9 .........................
0 .........................
1 .........................
2 .........................
3 .........................
4 .........r...............

Turn = 970.
  0123456789012345678901234
0 .........................
1 .........................
2 .........................
3 .........................
4 .........................
5 .........................
6 .........................
7 ............tt...........
8 ............tt...........
9 ............ttt..........
0 ............ttt.t........
1 .............tttt...t....
2 ...........t.t.tttttt....
3 ...........t.ttttttt.....
4 ...........tttttttttr...r
5 ............tttttttrr....
6 ............t..tttt......
7 .................tt......
8 r................ttt.....
9 .........................
0 .........................
1 .........................
2 .........................
3 .r.......................
4 r........................

Turn = 980.
  0123456789012345678901234
0 .........................
1 .........................
2 .........................
3 .........................
4 .........................
5 .........................
6 .........................
7 ............tt...........
8 ............tt...........
9 ............ttt..........
0 ............ttt.t........
1 .............tttt...t....
2 ...........t.t.tttttt....
3 .r.........t.ttttttt.....
4 ...........tttttttttr....
5 ............tttttttrr....
6 ............t..tttt......
7 .................tt......
8 .................ttt.....
9 .........................
0 .........................
1 .........................
2 .........................
3 .........................
4 ...r......r.............r

Turn = 990.
  0123456789012345678901234
0 .........................
1 .........................
2 .........................
3 .r.......................
4 .........................
5 .........................
6 .........................
7 ............tt...........
8 ............tt...........
9 ............ttt..........
0 ............ttt.t........
1 .............tttt...t....
2 ...........t.t.tttttt....
3 ...........t.ttttttt.....
4 ...........tttttttttr....
5 ............tttttttrr....
6 ............t..tttt.....r
7 .................tt......
8 .................ttt.....
9 .........................
0 .........................
1 .........................
2 .........................
3 .........................
4 .............r......r....

Turn = 1000.
  0123456789012345678901234
0 ...r.....................
1 .........................
2 .........................
3 .........................
4 .........................
5 .........................
6 ........................r
7 ............tt...........
8 ............tt...........
9 ............ttt..........
0 ............ttt.t........
1 .............tttt...t....
2 ...........t.t.tttttt....
3 ...........t.ttttttt.....
4 ...........tttttttttr....
5 ............tttttttrr....
6 ............t..tttt......
7 .................tt......
8 .................ttt.....
9 .........................
0 .........................
1 .........................
2 .........................
3 ......................r..
4 .....................r...
