*** Darwin 21x18 ***
Turn = 0.
  012345678901234567
0 .h.t.f...r....r...
1 ...f....h.........
2 ..................
3 t.................
4 .............t.f..
5 ..................
6 ...........t......
7 ..................
8 .....f............
9 ......h..t.f......
0 ..................
1 ..................
2 .....r............
3 ..................
4 ..................
5 ..................
6 ..............t...
7 ...............f..
8 ..................
9 ..........f.......
0 ..................

Turn = 2.
  012345678901234567
0 h..t.f..........r.
1 ...f....h.........
2 .........r........
3 t.................
4 .............t.f..
5 ..................
6 ...........t......
7 ..................
8 .....f............
9 .........t.f......
0 ..................
1 ......h...........
2 .......r..........
3 ..................
4 ..................
5 ..................
6 ..............t...
7 ...............f..
8 ..................
9 ..........f.......
0 ..................

Turn = 4.
  012345678901234567
0 h..t.f...........r
1 ...t......h.......
2 ..................
3 t.................
4 .........r...t.f..
5 ..................
6 ...........t......
7 ..................
8 .....f............
9 .........t.f......
0 ..................
1 ..................
2 .........r........
3 ......h...........
4 ..................
5 ..................
6 ..............t...
7 ...............f..
8 ..................
9 ..........f.......
0 ..................

Turn = 6.
  012345678901234567
0 h..t.f............
1 ...t........h.....
2 .................r
3 t.................
4 .............t.f..
5 ..................
6 .........r.t......
7 ..................
8 .....f............
9 .........t.f......
0 ..................
1 ..................
2 ...........r......
3 ..................
4 ..................
5 ......h...........
6 ..............t...
7 ...............f..
8 ..................
9 ..........f.......
0 ..................

Turn = 8.
  012345678901234567
0 h..t.f............
1 ...t..........h...
2 ..................
3 t.................
4 .............t.f.r
5 ..................
6 ...........t......
7 ..................
8 .....f...r........
9 .........t.f......
0 ..................
1 ..................
2 .............r....
3 ..................
4 ..................
5 ..................
6 ..............t...
7 ......h........f..
8 ..................
9 ..........f.......
0 ..................

Turn = 10.
  012345678901234567
0 h..t.f............
1 ...t............h.
2 ..................
3 t.................
4 .............t.f..
5 ..................
6 ...........t.....r
7 ..................
8 .....f.....r......
9 .........rr.......
0 ..................
1 ..................
2 ...............r..
3 ..................
4 ..................
5 ..................
6 ..............t...
7 ...............f..
8 ..................
9 ......h...f.......
0 ..................

Turn = 12.
  012345678901234567
0 h..t.f............
1 ...t.............h
2 ..................
3 t.................
4 .............t.f..
5 ..................
6 ...........r......
7 ...........r......
8 .....f...........r
9 ............r.....
0 ..................
1 .........r........
2 .................r
3 ..................
4 ..................
5 ..................
6 ..............t...
7 ...............f..
8 ..................
9 ..........f.......
0 ......h...........

Turn = 14.
  012345678901234567
0 h..t.f............
1 ...t.............h
2 ..................
3 t.................
4 .............t.f..
5 ..................
6 ............r.....
7 ............r.....
8 .....f............
9 ..............r...
0 .................r
1 ..................
2 ..................
3 .........r.......r
4 ..................
5 ..................
6 ..............t...
7 ...............f..
8 ..................
9 ..........f.......
0 ......h...........

Turn = 16.
  012345678901234567
0 h..t.f............
1 ...t.............h
2 ..................
3 t.................
4 .............t.f..
5 ..................
6 ..............r...
7 ..............r...
8 .....f............
9 ................r.
0 ..................
1 ..................
2 .................r
3 ..................
4 ..................
5 .........r.......r
6 ..............t...
7 ...............f..
8 ..................
9 ..........f.......
0 ......h...........

Turn = 18.
  012345678901234567
0 h..t.f............
1 ...t.............h
2 ..................
3 t.................
4 .............t.f..
5 ..................
6 ................r.
7 ................r.
8 .....f............
9 .................r
0 ..................
1 ..................
2 ..................
3 ..................
4 .................r
5 ..................
6 ..............t...
7 .........r.....f.r
8 ..................
9 ..........f.......
0 ......h...........

Turn = 20.
  012345678901234567
0 h..t.f............
1 ...t.............h
2 ..................
3 t.................
4 .............t.f..
5 ..................
6 .................r
7 .................r
8 .....f............
9 ..................
0 ..................
1 .................r
2 ..................
3 ..................
4 ..................
5 ..................
6 ..............t..r
7 ...............f..
8 ..................
9 .........rf......r
0 ......h...........

Turn = 22.
  012345678901234567
0 h..t.f............
1 ...t.............h
2 ..................
3 t.................
4 .............t.f..
5 ..................
6 .................r
7 .................r
8 .....f............
9 ..................
0 ..................
1 ..................
2 ..................
3 .................r
4 ..................
5 ..................
6 ..............t...
7 ...............f..
8 .................r
9 ..........f.......
0 ......h..r.......r

*** Darwin 17x10 ***
Turn = 0.
  0123456789
0 ..r.......
1 .........t
2 ..........
3 ....t....h
4 f.....f...
5 ......r...
6 ...r......
7 .h........
8 .r.hr..h..
9 .f........
0 ..ft......
1 f.........
2 ......f...
3 ...f......
4 ...h......
5 ..........
6 ........ft

Turn = 1.
  0123456789
0 .r........
1 .........t
2 ..........
3 ....t.....
4 f.....r..h
5 ......r...
6 ..r.......
7 ..h.......
8 .rhr......
9 .......h..
0 .rtt......
1 f.........
2 ......f...
3 ...f......
4 ..h.......
5 ..........
6 ........tt

Turn = 2.
  0123456789
0 r.........
1 .........t
2 ..........
3 ....t.....
4 f.....r...
5 ......r..h
6 .r........
7 ...h......
8 .hr.......
9 .r........
0 ..tt...h..
1 fr........
2 ......f...
3 ...f......
4 .h........
5 ..........
6 ........tt

Turn = 3.
  0123456789
0 r.........
1 .........t
2 ..........
3 ....t.....
4 f....r....
5 .....r....
6 r........h
7 ....h.....
8 hr........
9 ..........
0 .rtt......
1 f......h..
2 .r....f...
3 ...f......
4 h.........
5 ..........
6 ........tt

Turn = 4.
  0123456789
0 r.........
1 .........t
2 ..........
3 ....t.....
4 f...r.....
5 ....r.....
6 r.........
7 .....h...h
8 rr........
9 ..........
0 ..tt......
1 fr........
2 ......fh..
3 .r.f......
4 h.........
5 ..........
6 ........tt

Turn = 5.
  0123456789
0 .r........
1 .........t
2 ..........
3 ....t.....
4 f..r......
5 r..r......
6 ..........
7 ......h...
8 rr.......h
9 ..........
0 ..tt......
1 f.........
2 .r....f...
3 ...f...h..
4 hr........
5 ..........
6 ........tt

Turn = 6.
  0123456789
0 ..r.......
1 .........t
2 ..........
3 ....t.....
4 r.r.......
5 r.r.......
6 ..........
7 r......h..
8 ..........
9 .r.......h
0 ..tt......
1 f.........
2 ......f...
3 .r.f......
4 h......h..
5 .r........
6 ........tt

Turn = 7.
  0123456789
0 ...r......
1 .........t
2 ..........
3 ....t.....
4 rrr.......
5 .r........
6 r.........
7 ........h.
8 ..........
9 ..........
0 .rtt.....h
1 f.........
2 ......f...
3 ...f......
4 hr........
5 .......h..
6 .r......tt

Turn = 8.
  0123456789
0 ....r.....
1 .........t
2 ..........
3 r...t.....
4 .r........
5 r.r.......
6 r.........
7 .........h
8 ..........
9 ..........
0 ..tt......
1 fr.......h
2 ......f...
3 ...f......
4 h.........
5 .r........
6 .r.....htt

Turn = 9.
  0123456789
0 .....r....
1 .........t
2 r.........
3 ....t.....
4 ..........
5 rr........
6 .rr.......
7 .........h
8 ..........
9 ..........
0 ..tt......
1 f.........
2 .r....f..h
3 ...f......
4 h.........
5 .r........
6 ..r....htt

Turn = 10.
  0123456789
0 ......r...
1 r........t
2 ..........
3 ....t.....
4 r.........
5 .r........
6 .r........
7 ..r......h
8 ..........
9 ..........
0 ..tt......
1 f.........
2 ......f...
3 .r.f.....h
4 h.........
5 ..r.......
6 ...r...ttt

Turn = 11.
  0123456789
0 r......r..
1 .........t
2 ..........
3 r...t.....
4 ..........
5 r.........
6 ..........
7 .r.......h
8 ..r.......
9 ..........
0 ..tt......
1 f.........
2 ......f...
3 ...f......
4 hr.......h
5 ...r......
6 ....r..ttt

Turn = 12.
  0123456789
0 r.......r.
1 .........t
2 r.........
3 ....t.....
4 ..........
5 r.........
6 ..........
7 .........h
8 .r........
9 ..r.......
0 ..tt......
1 f.........
2 ......f...
3 ...f......
4 h.........
5 .r..r....h
6 .....r.ttt

Turn = 13.
  0123456789
0 r........r
1 r........t
2 ..........
3 ....t.....
4 ..........
5 ..........
6 r.........
7 .........h
8 ..........
9 .rr.......
0 ..rt......
1 f.........
2 ......f...
3 ...f......
4 h.........
5 .....r...t
6 .r....rttt

Turn = 14.
  0123456789
0 r........t
1 r........t
2 ..........
3 ....t.....
4 ..........
5 ..........
6 ..........
7 r........h
8 ..........
9 ..r.......
0 .rtt......
1 f.........
2 ......f...
3 ...f......
4 h.........
5 ......r..t
6 .r....rrtt

Turn = 15.
  0123456789
0 .r.......t
1 r........t
2 ..........
3 ....t.....
4 ..........
5 ..........
6 ..........
7 .........h
8 r.........
9 .r........
0 ..tt......
1 fr........
2 ......f...
3 ...f......
4 h.........
5 .......r.t
6 ..r...rttt

Turn = 16.
  0123456789
0 ..r......t
1 .........t
2 r.........
3 ....t.....
4 ..........
5 ..........
6 ..........
7 .........h
8 ..........
9 rr........
0 ..tt......
1 f.........
2 .r....f...
3 ...f......
4 h.........
5 ........rt
6 ...r..tttt

Turn = 17.
  0123456789
0 ...r.....t
1 .........t
2 ..........
3 r...t.....
4 ..........
5 ..........
6 ..........
7 .........h
8 .r........
9 ..........
0 r.tt......
1 f.........
2 ......f...
3 .r.f......
4 h.........
5 ........rr
6 ....r.tttt

*** Darwin 18x26 ***
Turn = 0.
  01234567890123456789012345
0 .........h................
1 .........t....r......f....
2 ..............h.........f.
3 ...................f.....r
4 .......h.......t.f........
5 ...............h..........
6 ..........................
7 ..........................
8 ..........t..h............
9 ..........................
0 .........f.............t..
1 f......r....r..........r..
2 .............h..t.........
3 ......f...................
4 ..........................
5 .....r..........h.........
6 ..........................
7 ..........................

Turn = 2.
  01234567890123456789012345
0 ...........h..............
1 .........t..r........f....
2 ........................f.
3 ...................f...r..
4 ..............ht.f........
5 ...............t..........
6 .......h..................
7 ..........................
8 ..........t....h..........
9 ..........................
0 .........f.............t..
1 f........rr..........r....
2 ...............ht.........
3 ......f...................
4 ..........................
5 ..................h.......
6 ..........................
7 .....r....................

*** Darwin 13x10 ***
Turn = 0.
  0123456789
0 ....r.....
1 .f........
2 ...f.....r
3 ........r.
4 ..........
5 ..........
6 ...t...fr.
7 h.....f...
8 .....hrh..
9 .h........
0 .....ftt..
1 .r........
2 .......f.t

Turn = 2.
  0123456789
0 ......r...
1 .f........
2 ...f......
3 ......r..r
4 ..........
5 ..........
6 ...t...f.r
7 ......f...
8 .....hr...
9 h......r..
0 .....ftt..
1 rh........
2 .......f.t

Turn = 4.
  0123456789
0 ........r.
1 .f........
2 ...f......
3 ....r.....
4 ..........
5 .........r
6 ...t...f..
7 ......f...
8 ......h..r
9 ......r...
0 r....rrr.r
1 r.........
2 .h.....f.t

Turn = 6.
  0123456789
0 .........r
1 .f........
2 ...f......
3 ..r.......
4 ..........
5 ..........
6 ...t...f..
7 ......f..r
8 ........h.
9 r......r.r
0 ...rr.....
1 .......r.r
2 rh......tt

Turn = 8.
  0123456789
0 ..........
1 .f........
2 ...f.....r
3 r.........
4 ..........
5 ..........
6 ...t...f..
7 r.....f...
8 ........hr
9 ........r.
0 .rr......r
1 .........r
2 rh.....rtt

Turn = 10.
  0123456789
0 ..........
1 .f........
2 ...f......
3 ..........
4 r........r
5 r.........
6 ...t...f..
7 ......f...
8 ........r.
9 ........rr
0 rr.......r
1 .........r
2 rh.....rrr

Turn = 12.
  0123456789
0 ..........
1 .f........
2 ...f......
3 ..........
4 r.........
5 .r........
6 ...t...frr
7 ......f...
8 rr........
9 ......r..r
0 .......rr.
1 .......r..
2 rr......rr

Turn = 14.
  0123456789
0 ..........
1 .f........
2 r..f......
3 ..........
4 ........r.
5 ...r......
6 rr.t...f..
7 ......f...
8 .......r.r
9 ....r.....
0 ......r...
1 r....r...r
2 ...r..r..r

Turn = 16.
  0123456789
0 r.........
1 .f........
2 ...f....r.
3 ..........
4 rr........
5 .....r....
6 ...t...r..
7 ......fr..
8 ..........
9 r.r.......
0 ....r....r
1 ...r....rr
2 ....rr....

Turn = 18.
  0123456789
0 r.......r.
1 .f........
2 rr.f......
3 ..........
4 ..........
5 .......r..
6 ...t.r.r..
7 r.....f...
8 ..........
9 r.........
0 ..r.....r.
1 .r....r.r.
2 ....r.r...

Turn = 20.
  0123456789
0 rr.......r
1 rr........
2 ...f......
3 ..........
4 ..........
5 r........r
6 ...rr....r
7 ......f...
8 ..........
9 ..........
0 rr....r...
1 r...r.r...
2 ...r....r.

Turn = 22.
  0123456789
0 r.r......r
1 r.........
2 r..f......
3 r.........
4 ..........
5 .........r
6 .rr......r
7 ......f...
8 .r........
9 ..........
0 .r..r.....
1 .rr.r.....
2 .r.......r

Turn = 24.
  0123456789
0 r...r....r
1 r.........
2 r..f......
3 r.........
4 ..........
5 ..........
6 rr.....r.r
7 .r....f...
8 ..........
9 ..........
0 .rrr.....r
1 ..r.......
2 r.r.......

Turn = 26.
  0123456789
0 .r....rr..
1 ..r.......
2 r..f......
3 ..........
4 ..........
5 r.........
6 r....r....
7 ...r..f...
8 rr.......r
9 .........r
0 .r........
1 r.........
2 .rrr......

Turn = 28.
  0123456789
0 ...r......
1 ....r.rr..
2 ...f......
3 ..........
4 r.........
5 rr........
6 .r.r......
7 .....rf...
8 ........r.
9 r......r..
0 r.........
1 rr........
2 .r..r.....

Turn = 30.
  0123456789
0 .....r....
1 ......r...
2 ...f......
3 ......rr..
4 rr........
5 r..r......
6 .r....r...
7 .....r....
8 r.....r...
9 .r...r....
0 r.........
1 r.........
2 r.....r...

Turn = 32.
  0123456789
0 .......r..
1 ........r.
2 rr.f......
3 r.........
4 ......r...
5 .....rrr..
6 r.........
7 rr........
8 ..........
9 ...r.rr...
0 r.........
1 r.r.......
2 ........r.

Turn = 34.
  0123456789
0 rr.......r
1 r........r
2 ...f......
3 ..........
4 ....r.r...
5 .r........
6 r....r....
7 r......r..
8 ..........
9 .r........
0 .r........
1 ..r.rrr...
2 .........r

*** Darwin 24x30 ***
Turn = 0.
  012345678901234567890123456789
0 ..............................
1 ..............................
2 ..............................
3 ...h..........................
4 ..............................
5 ..............................
6 ..........................r...
7 ..............................
8 ..............................
9 ....t.........................
0 ..............................
1 ..............................
2 ..............................
3 ..............................
4 .....t........................
5 ..............................
6 ..............................
7 ..............................
8 ...r..........................
9 ..............................
0 ..............................
1 ........................f.....
2 ..............................
3 ..............................

Turn = 1.
  012345678901234567890123456789
0 ..............................
1 ..............................
2 ...h..........................
3 ..............................
4 ..............................
5 ..............................
6 ..............................
7 ..........................r...
8 ..............................
9 ....t.........................
0 ..............................
1 ..............................
2 ..............................
3 ..............................
4 .....t........................
5 ..............................
6 ..............................
7 ..............................
8 ..r...........................
9 ..............................
0 ..............................
1 ........................f.....
2 ..............................
3 ..............................

Turn = 2.
  012345678901234567890123456789
0 ..............................
1 ...h..........................
2 ..............................
3 ..............................
4 ..............................
5 ..............................
6 ..............................
7 ..............................
8 ..........................r...
9 ....t.........................
0 ..............................
1 ..............................
2 ..............................
3 ..............................
4 .....t........................
5 ..............................
6 ..............................
7 ..............................
8 .r............................
9 ..............................
0 ..............................
1 ........................f.....
2 ..............................
3 ..............................

Turn = 3.
  012345678901234567890123456789
0 ...h..........................
1 ..............................
2 ..............................
3 ..............................
4 ..............................
5 ..............................
6 ..............................
7 ..............................
8 ..............................
9 ....t.....................r...
0 ..............................
1 ..............................
2 ..............................
3 ..............................
4 .....t........................
5 ..............................
6 ..............................
7 ..............................
8 r.............................
9 ..............................
0 ..............................
1 ........................f.....
2 ..............................
3 ..............................

Turn = 4.
  012345678901234567890123456789
0 ...h..........................
1 ..............................
2 ..............................
3 ..............................
4 ..............................
5 ..............................
6 ..............................
7 ..............................
8 ..............................
9 ....t.........................
0 ..........................r...
1 ..............................
2 ..............................
3 ..............................
4 .....t........................
5 ..............................
6 ..............................
7 ..............................
8 r.............................
9 ..............................
0 ..............................
1 ........................f.....
2 ..............................
3 ..............................

Turn = 5.
  012345678901234567890123456789
0 ...h..........................
1 ..............................
2 ..............................
3 ..............................
4 ..............................
5 ..............................
6 ..............................
7 ..............................
8 ..............................
9 ....t.........................
0 ..............................
1 ..........................r...
2 ..............................
3 ..............................
4 .....t........................
5 ..............................
6 ..............................
7 r.............................
8 ..............................
9 ..............................
0 ..............................
1 ........................f.....
2 ..............................
3 ..............................

Turn = 6.
  012345678901234567890123456789
0 ...h..........................
1 ..............................
2 ..............................
3 ..............................
4 ..............................
5 ..............................
6 ..............................
7 ..............................
8 ..............................
9 ....t.........................
0 ..............................
1 ..............................
2 ..........................r...
3 ..............................
4 .....t........................
5 ..............................
6 r.............................
7 ..............................
8 ..............................
9 ..............................
0 ..............................
1 ........................f.....
2 ..............................
3 ..............................

Turn = 7.
  012345678901234567890123456789
0 ...h..........................
1 ..............................
2 ..............................
3 ..............................
4 ..............................
5 ..............................
6 ..............................
7 ..............................
8 ..............................
9 ....t.........................
0 ..............................
1 ..............................
2 ..............................
3 ..........................r...
4 .....t........................
5 r.............................
6 ..............................
7 ..............................
8 ..............................
9 ..............................
0 ..............................
1 ........................f.....
2 ..............................
3 ..............................

Turn = 8.
  012345678901234567890123456789
0 ...h..........................
1 ..............................
2 ..............................
3 ..............................
4 ..............................
5 ..............................
6 ..............................
7 ..............................
8 ..............................
9 ....t.........................
0 ..............................
1 ..............................
2 ..............................
3 ..............................
4 r....t....................r...
5 ..............................
6 ..............................
7 ..............................
8 ..............................
9 ..............................
0 ..............................
1 ........................f.....
2 ..............................
3 ..............................

Turn = 9.
  012345678901234567890123456789
0 ...h..........................
1 ..............................
2 ..............................
3 ..............................
4 ..............................
5 ..............................
6 ..............................
7 ..............................
8 ..............................
9 ....t.........................
0 ..............................
1 ..............................
2 ..............................
3 r.............................
4 .....t........................
5 ..........................r...
6 ..............................
7 ..............................
8 ..............................
9 ..............................
0 ..............................
1 ........................f.....
2 ..............................
3 ..............................

Turn = 10.
  012345678901234567890123456789
0 ...h..........................
1 ..............................
2 ..............................
3 ..............................
4 ..............................
5 ..............................
6 ..............................
7 ..............................
8 ..............................
9 ....t.........................
0 ..............................
1 ..............................
2 r.............................
3 ..............................
4 .....t........................
5 ..............................
6 ..........................r...
7 ..............................
8 ..............................
9 ..............................
0 ..............................
1 ........................f.....
2 ..............................
3 ..............................

Turn = 11.
  012345678901234567890123456789
0 ...h..........................
1 ..............................
2 ..............................
3 ..............................
4 ..............................
5 ..............................
6 ..............................
7 ..............................
8 ..............................
9 ....t.........................
0 ..............................
1 r.............................
2 ..............................
3 ..............................
4 .....t........................
5 ..............................
6 ..............................
7 ..........................r...
8 ..............................
9 ..............................
0 ..............................
1 ........................f.....
2 ..............................
3 ..............................

Turn = 12.
  012345678901234567890123456789
0 ...h..........................
1 ..............................
2 ..............................
3 ..............................
4 ..............................
5 ..............................
6 ..............................
7 ..............................
8 ..............................
9 ....t.........................
0 r.............................
1 ..............................
2 ..............................
3 ..............................
4 .....t........................
5 ..............................
6 ..............................
7 ..............................
8 ..........................r...
9 ..............................
0 ..............................
1 ........................f.....
2 ..............................
3 ..............................

Turn = 13.
  012345678901234567890123456789
0 ...h..........................
1 ..............................
2 ..............................
3 ..............................
4 ..............................
5 ..............................
6 ..............................
7 ..............................
8 ..............................
9 r...t.........................
0 ..............................
1 ..............................
2 ..............................
3 ..............................
4 .....t........................
5 ..............................
6 ..............................
7 ..............................
8 ..............................
9 ..........................r...
0 ..............................
1 ........................f.....
2 ..............................
3 ..............................

Turn = 14.
  012345678901234567890123456789
0 ...h..........................
1 ..............................
2 ..............................
3 ..............................
4 ..............................
5 ..............................
6 ..............................
7 ..............................
8 r.............................
9 ....t.........................
0 ..............................
1 ..............................
2 ..............................
3 ..............................
4 .....t........................
5 ..............................
6 ..............................
7 ..............................
8 ..............................
9 ..............................
0 ..........................r...
1 ........................f.....
2 ..............................
3 ..............................

Turn = 15.
  012345678901234567890123456789
0 ...h..........................
1 ..............................
2 ..............................
3 ..............................
4 ..............................
5 ..............................
6 ..............................
7 r.............................
8 ..............................
9 ....t.........................
0 ..............................
1 ..............................
2 ..............................
3 ..............................
4 .....t........................
5 ..............................
6 ..............................
7 ..............................
8 ..............................
9 ..............................
0 ..............................
1 ........................f.r...
2 ..............................
3 ..............................

Turn = 16.
  012345678901234567890123456789
0 ...h..........................
1 ..............................
2 ..............................
3 ..............................
4 ..............................
5 ..............................
6 r.............................
7 ..............................
8 ..............................
9 ....t.........................
0 ..............................
1 ..............................
2 ..............................
3 ..............................
4 .....t........................
5 ..............................
6 ..............................
7 ..............................
8 ..............................
9 ..............................
0 ..............................
1 ........................f.....
2 ..........................r...
3 ..............................

Turn = 17.
  012345678901234567890123456789
0 ...h..........................
1 ..............................
2 ..............................
3 ..............................
4 ..............................
5 r.............................
6 ..............................
7 ..............................
8 ..............................
9 ....t.........................
0 ..............................
1 ..............................
2 ..............................
3 ..............................
4 .....t........................
5 ..............................
6 ..............................
7 ..............................
8 ..............................
9 ..............................
0 ..............................
1 ........................f.....
2 ..............................
3 ..........................r...

Turn = 18.
  012345678901234567890123456789
0 ...h..........................
1 ..............................
2 ..............................
3 ..............................
4 r.............................
5 ..............................
6 ..............................
7 ..............................
8 ..............................
9 ....t.........................
0 ..............................
1 ..............................
2 ..............................
3 ..............................
4 .....t........................
5 ..............................
6 ..............................
7 ..............................
8 ..............................
9 ..............................
0 ..............................
1 ........................f.....
2 ..............................
3 ..........................r...

Turn = 19.
  012345678901234567890123456789
0 ...h..........................
1 ..............................
2 ..............................
3 r.............................
4 ..............................
5 ..............................
6 ..............................
7 ..............................
8 ..............................
9 ....t.........................
0 ..............................
1 ..............................
2 ..............................
3 ..............................
4 .....t........................
5 ..............................
6 ..............................
7 ..............................
8 ..............................
9 ..............................
0 ..............................
1 ........................f.....
2 ..............................
3 ...........................r..

Turn = 20.
  012345678901234567890123456789
0 ...h..........................
1 ..............................
2 r.............................
3 ..............................
4 ..............................
5 ..............................
6 ..............................
7 ..............................
8 ..............................
9 ....t.........................
0 ..............................
1 ..............................
2 ..............................
3 ..............................
4 .....t........................
5 ..............................
6 ..............................
7 ..............................
8 ..............................
9 ..............................
0 ..............................
1 ........................f.....
2 ..............................
3 ............................r.

Turn = 21.
  012345678901234567890123456789
0 ...h..........................
1 r.............................
2 ..............................
3 ..............................
4 ..............................
5 ..............................
6 ..............................
7 ..............................
8 ..............................
9 ....t.........................
0 ..............................
1 ..............................
2 ..............................
3 ..............................
4 .....t........................
5 ..............................
6 ..............................
7 ..............................
8 ..............................
9 ..............................
0 ..............................
1 ........................f.....
2 ..............................
3 .............................r

Turn = 22.
  012345678901234567890123456789
0 r..h..........................
1 ..............................
2 ..............................
3 ..............................
4 ..............................
5 ..............................
6 ..............................
7 ..............................
8 ..............................
9 ....t.........................
0 ..............................
1 ..............................
2 ..............................
3 ..............................
4 .....t........................
5 ..............................
6 ..............................
7 ..............................
8 ..............................
9 ..............................
0 ..............................
1 ........................f.....
2 ..............................
3 .............................r

Turn = 23.
  012345678901234567890123456789
0 r..h..........................
1 ..............................
2 ..............................
3 ..............................
4 ..............................
5 ..............................
6 ..............................
7 ..............................
8 ..............................
9 ....t.........................
0 ..............................
1 ..............................
2 ..............................
3 ..............................
4 .....t........................
5 ..............................
6 ..............................
7 ..............................
8 ..............................
9 ..............................
0 ..............................
1 ........................f.....
2 ..............................
3 .............................r

Turn = 24.
  012345678901234567890123456789
0 .r.h..........................
1 ..............................
2 ..............................
3 ..............................
4 ..............................
5 ..............................
6 ..............................
7 ..............................
8 ..............................
9 ....t.........................
0 ..............................
1 ..............................
2 ..............................
3 ..............................
4 .....t........................
5 ..............................
6 ..............................
7 ..............................
8 ..............................
9 ..............................
0 ..............................
1 ........................f.....
2 ..............................
3 ............................r.

Turn = 25.
  012345678901234567890123456789
0 ..rh..........................
1 ..............................
2 ..............................
3 ..............................
4 ..............................
5 ..............................
6 ..............................
7 ..............................
8 ..............................
9 ....t.........................
0 ..............................
1 ..............................
2 ..............................
3 ..............................
4 .....t........................
5 ..............................
6 ..............................
7 ..............................
8 ..............................
9 ..............................
0 ..............................
1 ........................f.....
2 ..............................
3 ...........................r..

Turn = 26.
  012345678901234567890123456789
0 ..rr..........................
1 ..............................
2 ..............................
3 ..............................
4 ..............................
5 ..............................
6 ..............................
7 ..............................
8 ..............................
9 ....t.........................
0 ..............................
1 ..............................
2 ..............................
3 ..............................
4 .....t........................
5 ..............................
6 ..............................
7 ..............................
8 ..............................
9 ..............................
0 ..............................
1 ........................f.....
2 ..............................
3 ..........................r...

Turn = 27.
  012345678901234567890123456789
0 ..r.r.........................
1 ..............................
2 ..............................
3 ..............................
4 ..............................
5 ..............................
6 ..............................
7 ..............................
8 ..............................
9 ....t.........................
0 ..............................
1 ..............................
2 ..............................
3 ..............................
4 .....t........................
5 ..............................
6 ..............................
7 ..............................
8 ..............................
9 ..............................
0 ..............................
1 ........................f.....
2 ..............................
3 .........................r....

Turn = 28.
  012345678901234567890123456789
0 ..r..r........................
1 ..............................
2 ..............................
3 ..............................
4 ..............................
5 ..............................
6 ..............................
7 ..............................
8 ..............................
9 ....t.........................
0 ..............................
1 ..............................
2 ..............................
3 ..............................
4 .....t........................
5 ..............................
6 ..............................
7 ..............................
8 ..............................
9 ..............................
0 ..............................
1 ........................f.....
2 ..............................
3 ........................r.....

Turn = 29.
  012345678901234567890123456789
0 .r....r.......................
1 ..............................
2 ..............................
3 ..............................
4 ..............................
5 ..............................
6 ..............................
7 ..............................
8 ..............................
9 ....t.........................
0 ..............................
1 ..............................
2 ..............................
3 ..............................
4 .....t........................
5 ..............................
6 ..............................
7 ..............................
8 ..............................
9 ..............................
0 ..............................
1 ........................f.....
2 ..............................
3 .......................r......

Turn = 30.
  012345678901234567890123456789
0 r......r......................
1 ..............................
2 ..............................
3 ..............................
4 ..............................
5 ..............................
6 ..............................
7 ..............................
8 ..............................
9 ....t.........................
0 ..............................
1 ..............................
2 ..............................
3 ..............................
4 .....t........................
5 ..............................
6 ..............................
7 ..............................
8 ..............................
9 ..............................
0 ..............................
1 ........................f.....
2 ..............................
3 ......................r.......

Turn = 31.
  012345678901234567890123456789
0 r.......r.....................
1 ..............................
2 ..............................
3 ..............................
4 ..............................
5 ..............................
6 ..............................
7 ..............................
8 ..............................
9 ....t.........................
0 ..............................
1 ..............................
2 ..............................
3 ..............................
4 .....t........................
5 ..............................
6 ..............................
7 ..............................
8 ..............................
9 ..............................
0 ..............................
1 ........................f.....
2 ..............................
3 .....................r........

Turn = 32.
  012345678901234567890123456789
0 r........r....................
1 ..............................
2 ..............................
3 ..............................
4 ..............................
5 ..............................
6 ..............................
7 ..............................
8 ..............................
9 ....t.........................
0 ..............................
1 ..............................
2 ..............................
3 ..............................
4 .....t........................
5 ..............................
6 ..............................
7 ..............................
8 ..............................
9 ..............................
0 ..............................
1 ........................f.....
2 ..............................
3 ....................r.........

Turn = 33.
  012345678901234567890123456789
0 .r........r...................
1 ..............................
2 ..............................
3 ..............................
4 ..............................
5 ..............................
6 ..............................
7 ..............................
8 ..............................
9 ....t.........................
0 ..............................
1 ..............................
2 ..............................
3 ..............................
4 .....t........................
5 ..............................
6 ..............................
7 ..............................
8 ..............................
9 ..............................
0 ..............................
1 ........................f.....
2 ..............................
3 ...................r..........

Turn = 34.
  012345678901234567890123456789
0 ..r........r..................
1 ..............................
2 ..............................
3 ..............................
4 ..............................
5 ..............................
6 ..............................
7 ..............................
8 ..............................
9 ....t.........................
0 ..............................
1 ..............................
2 ..............................
3 ..............................
4 .....t........................
5 ..............................
6 ..............................
7 ..............................
8 ..............................
9 ..............................
0 ..............................
1 ........................f.....
2 ..............................
3 ..................r...........

Turn = 35.
  012345678901234567890123456789
0 ...r........r.................
1 ..............................
2 ..............................
3 ..............................
4 ..............................
5 ..............................
6 ..............................
7 ..............................
8 ..............................
9 ....t.........................
0 ..............................
1 ..............................
2 ..............................
3 ..............................
4 .....t........................
5 ..............................
6 ..............................
7 ..............................
8 ..............................
9 ..............................
0 ..............................
1 ........................f.....
2 ..............................
3 .................r............

Turn = 36.
  012345678901234567890123456789
0 ....r........r................
1 ..............................
2 ..............................
3 ..............................
4 ..............................
5 ..............................
6 ..............................
7 ..............................
8 ..............................
9 ....t.........................
0 ..............................
1 ..............................
2 ..............................
3 ..............................
4 .....t........................
5 ..............................
6 ..............................
7 ..............................
8 ..............................
9 ..............................
0 ..............................
1 ........................f.....
2 ..............................
3 ................r.............

Turn = 37.
  012345678901234567890123456789
0 .....r........r...............
1 ..............................
2 ..............................
3 ..............................
4 ..............................
5 ..............................
6 ..............................
7 ..............................
8 ..............................
9 ....t.........................
0 ..............................
1 ..............................
2 ..............................
3 ..............................
4 .....t........................
5 ..............................
6 ..............................
7 ..............................
8 ..............................
9 ..............................
0 ..............................
1 ........................f.....
2 ..............................
3 ...............r..............

*** Darwin 17x14 ***
Turn = 0.
  01234567890123
0 ...........t..
1 ..............
2 ..............
3 ..t....f..rf..
4 ..............
5 ......r....f..
6 ...r..........
7 .......h......
8 ...r..........
9 ..............
0 ..r...........
1 ........rhr..r
2 ...f......t...
3 .............f
4 .........t...f
5 ....rth.......
6 ...r..........

Turn = 1.
  01234567890123
0 ...........t..
1 ..............
2 ..............
3 ..t....f...f..
4 ..........r...
5 .....r.....f..
6 ..r....h......
7 ..............
8 ..............
9 ..rr..........
0 ........r.....
1 .........h.rr.
2 ...f......t...
3 .............f
4 ......h..t...f
5 ...r.t........
6 ...r..........

Turn = 2.
  01234567890123
0 ...........t..
1 ..............
2 ..............
3 ..t....f...f..
4 ..............
5 ....r..h..rf..
6 .r............
7 ..............
8 ..r...........
9 ........r.....
0 ...r..........
1 ..........hrr.
2 ...f......t...
3 ......h......f
4 .........t...f
5 ..r..t........
6 ..r...........

Turn = 3.
  01234567890123
0 ...........t..
1 ..............
2 ..............
3 ..t....f...f..
4 .......h......
5 ...r.......f..
6 r.........r...
7 ..r...........
8 ........r.....
9 ..............
0 ...........rr.
1 ...r......t...
2 ...f..h...t...
3 .............f
4 .........t...f
5 .r...t........
6 .r............

Turn = 4.
  01234567890123
0 ...........t..
1 ..............
2 ..............
3 ..t....f...f..
4 .......h......
5 ..r........f..
6 r.r...........
7 ........r.r...
8 ..............
9 ...........rr.
0 ..............
1 ...r..h...t...
2 ..........t...
3 ...r.........f
4 .........t...f
5 r....t........
6 r.............

Turn = 5.
  01234567890123
0 ...........t..
1 ..............
2 ..............
3 ..t....f...f..
4 .......h......
5 rrr........f..
6 ........r.....
7 ..............
8 ..........rrr.
9 ..............
0 ......h.......
1 ..........t...
2 ...r......t...
3 .............f
4 ...r.....t...f
5 r....t........
6 r.............

Turn = 6.
  01234567890123
0 ...........t..
1 ..............
2 ..............
3 ..t....f...f..
4 r.r....h......
5 r.......r..f..
6 ..............
7 ...........rr.
8 ..............
9 ......h...r...
0 ..............
1 ..........t...
2 ..........t...
3 ...r.........f
4 r........t...f
5 r..r.t........
6 ..............

Turn = 7.
  01234567890123
0 ...........t..
1 ..............
2 ..............
3 r.r....f...f..
4 ..r....hr.....
5 r..........f..
6 ...........rr.
7 ..............
8 ......h.......
9 ..............
0 ..........r...
1 ..........t...
2 ..........t...
3 r............f
4 r..r.....t...f
5 .....t........
6 ...r..........

*** Darwin 10x24 ***
Turn = 0.
  012345678901234567890123
0 .......r................
1 .....f..................
2 .............f.r..h.....
3 ........................
4 ....t......h............
5 ...................r...r
6 .......r................
7 ...........r............
8 ........t...............
9 ....h....f.......r......

Turn = 4.
  012345678901234567890123
0 ..........rh............
1 .....f.......rr........r
2 ........................
3 ........................
4 ....t...................
5 ........................
6 ..................h.....
7 ........................
8 ........t...............
9 ......hr.fr..r.....r....

*** Darwin 22x11 ***
Turn = 0.
  01234567890
0 ...........
1 ...........
2 ...........
3 ...........
4 ...........
5 ....h.....f
6 ...........
7 ...........
8 ...........
9 ...........
0 .........r.
1 ...h.......
2 ...........
3 ...........
4 ...........
5 ...........
6 ...........
7 ...........
8 .....f..f..
9 ...........
0 h..........
1 ...........

Turn = 1.
  01234567890
0 ...........
1 ...........
2 ...........
3 ...........
4 ...........
5 .....h....f
6 ...........
7 ...........
8 ...........
9 ...........
0 ...........
1 ....h....r.
2 ...........
3 ...........
4 ...........
5 ...........
6 ...........
7 ...........
8 .....f..f..
9 ...........
0 h..........
1 ...........

Turn = 2.
  01234567890
0 ...........
1 ...........
2 ...........
3 ...........
4 ...........
5 ......h...f
6 ...........
7 ...........
8 ...........
9 ...........
0 ...........
1 .....h.....
2 .........r.
3 ...........
4 ...........
5 ...........
6 ...........
7 ...........
8 .....f..f..
9 ...........
0 h..........
1 ...........

Turn = 3.
  01234567890
0 ...........
1 ...........
2 ...........
3 ...........
4 ...........
5 .......h..f
6 ...........
7 ...........
8 ...........
9 ...........
0 ...........
1 ......h....
2 ...........
3 .........r.
4 ...........
5 ...........
6 ...........
7 ...........
8 .....f..f..
9 ...........
0 h..........
1 ...........

Turn = 4.
  01234567890
0 ...........
1 ...........
2 ...........
3 ...........
4 ...........
5 ........h.f
6 ...........
7 ...........
8 ...........
9 ...........
0 ...........
1 .......h...
2 ...........
3 ...........
4 .........r.
5 ...........
6 ...........
7 ...........
8 .....f..f..
9 ...........
0 h..........
1 ...........

Turn = 5.
  01234567890
0 ...........
1 ...........
2 ...........
3 ...........
4 ...........
5 .........hf
6 ...........
7 ...........
8 ...........
9 ...........
0 ...........
1 ........h..
2 ...........
3 ...........
4 ...........
5 .........r.
6 ...........
7 ...........
8 .....f..f..
9 ...........
0 h..........
1 ...........

Turn = 6.
  01234567890
0 ...........
1 ...........
2 ...........
3 ...........
4 ...........
5 .........hf
6 ...........
7 ...........
8 ...........
9 ...........
0 ...........
1 .........h.
2 ...........
3 ...........
4 ...........
5 ...........
6 .........r.
7 ...........
8 .....f..f..
9 ...........
0 h..........
1 ...........

Turn = 7.
  01234567890
0 ...........
1 ...........
2 ...........
3 ...........
4 ...........
5 .........hf
6 ...........
7 ...........
8 ...........
9 ...........
0 ...........
1 ..........h
2 ...........
3 ...........
4 ...........
5 ...........
6 ...........
7 .........r.
8 .....f..f..
9 ...........
0 h..........
1 ...........

Turn = 8.
  01234567890
0 ...........
1 ...........
2 ...........
3 ...........
4 ...........
5 .........hf
6 ...........
7 ...........
8 ...........
9 ...........
0 ...........
1 ..........h
2 ...........
3 ...........
4 ...........
5 ...........
6 ...........
7 ...........
8 .....f..fr.
9 ...........
0 h..........
1 ...........

Turn = 9.
  01234567890
0 ...........
1 ...........
2 ...........
3 ...........
4 ...........
5 .........hf
6 ...........
7 ...........
8 ...........
9 ...........
0 ...........
1 ..........h
2 ...........
3 ...........
4 ...........
5 ...........
6 ...........
7 ...........
8 .....f..f..
9 .........r.
0 h..........
1 ...........

Turn = 10.
  01234567890
0 ...........
1 ...........
2 ...........
3 ...........
4 ...........
5 .........hf
6 ...........
7 ...........
8 ...........
9 ...........
0 ...........
1 ..........h
2 ...........
3 ...........
4 ...........
5 ...........
6 ...........
7 ...........
8 .....f..f..
9 ...........
0 h........r.
1 ...........

Turn = 11.
  01234567890
0 ...........
1 ...........
2 ...........
3 ...........
4 ...........
5 .........hf
6 ...........
7 ...........
8 ...........
9 ...........
0 ...........
1 ..........h
2 ...........
3 ...........
4 ...........
5 ...........
6 ...........
7 ...........
8 .....f..f..
9 ...........
0 h..........
1 .........r.

Turn = 12.
  01234567890
0 ...........
1 ...........
2 ...........
3 ...........
4 ...........
5 .........hf
6 ...........
7 ...........
8 ...........
9 ...........
0 ...........
1 ..........h
2 ...........
3 ...........
4 ...........
5 ...........
6 ...........
7 ...........
8 .....f..f..
9 ...........
0 h..........
1 .........r.

Turn = 13.
  01234567890
0 ...........
1 ...........
2 ...........
3 ...........
4 ...........
5 .........hf
6 ...........
7 ...........
8 ...........
9 ...........
0 ...........
1 ..........h
2 ...........
3 ...........
4 ...........
5 ...........
6 ...........
7 ...........
8 .....f..f..
9 ...........
0 h..........
1 ........r..

Turn = 14.
  01234567890
0 ...........
1 ...........
2 ...........
3 ...........
4 ...........
5 .........hf
6 ...........
7 ...........
8 ...........
9 ...........
0 ...........
1 ..........h
2 ...........
3 ...........
4 ...........
5 ...........
6 ...........
7 ...........
8 .....f..f..
9 ...........
0 h..........
1 .......r...

Turn = 15.
  01234567890
0 ...........
1 ...........
2 ...........
3 ...........
4 ...........
5 .........hf
6 ...........
7 ...........
8 ...........
9 ...........
0 ...........
1 ..........h
2 ...........
3 ...........
4 ...........
5 ...........
6 ...........
7 ...........
8 .....f..f..
9 ...........
0 h..........
1 ......r....

Turn = 16.
  01234567890
0 ...........
1 ...........
2 ...........
3 ...........
4 ...........
5 .........hf
6 ...........
7 ...........
8 ...........
9 ...........
0 ...........
1 ..........h
2 ...........
3 ...........
4 ...........
5 ...........
6 ...........
7 ...........
8 .....f..f..
9 ...........
0 h..........
1 .....r.....

Turn = 17.
  01234567890
0 ...........
1 ...........
2 ...........
3 ...........
4 ...........
5 .........hf
6 ...........
7 ...........
8 ...........
9 ...........
0 ...........
1 ..........h
2 ...........
3 ...........
4 ...........
5 ...........
6 ...........
7 ...........
8 .....f..f..
9 ...........
0 h..........
1 ....r......

Turn = 18.
  01234567890
0 ...........
1 ...........
2 ...........
3 ...........
4 ...........
5 .........hf
6 ...........
7 ...........
8 ...........
9 ...........
0 ...........
1 ..........h
2 ...........
3 ...........
4 ...........
5 ...........
6 ...........
7 ...........
8 .....f..f..
9 ...........
0 h..........
1 ...r.......

Turn = 19.
  01234567890
0 ...........
1 ...........
2 ...........
3 ...........
4 ...........
5 .........hf
6 ...........
7 ...........
8 ...........
9 ...........
0 ...........
1 ..........h
2 ...........
3 ...........
4 ...........
5 ...........
6 ...........
7 ...........
8 .....f..f..
9 ...........
0 h..........
1 ..r........

Turn = 20.
  01234567890
0 ...........
1 ...........
2 ...........
3 ...........
4 ...........
5 .........hf
6 ...........
7 ...........
8 ...........
9 ...........
0 ...........
1 ..........h
2 ...........
3 ...........
4 ...........
5 ...........
6 ...........
7 ...........
8 .....f..f..
9 ...........
0 h..........
1 .r.........

Turn = 21.
  01234567890
0 ...........
1 ...........
2 ...........
3 ...........
4 ...........
5 .........hf
6 ...........
7 ...........
8 ...........
9 ...........
0 ...........
1 ..........h
2 ...........
3 ...........
4 ...........
5 ...........
6 ...........
7 ...........
8 .....f..f..
9 ...........
0 h..........
1 r..........

Turn = 22.
  01234567890
0 ...........
1 ...........
2 ...........
3 ...........
4 ...........
5 .........hf
6 ...........
7 ...........
8 ...........
9 ...........
0 ...........
1 ..........h
2 ...........
3 ...........
4 ...........
5 ...........
6 ...........
7 ...........
8 .....f..f..
9 ...........
0 h..........
1 r..........

Turn = 23.
  01234567890
0 ...........
1 ...........
2 ...........
3 ...........
4 ...........
5 .........hf
6 ...........
7 ...........
8 ...........
9 ...........
0 ...........
1 ..........h
2 ...........
3 ...........
4 ...........
5 ...........
6 ...........
7 ...........
8 .....f..f..
9 ...........
0 h..........
1 r..........

Turn = 24.
  01234567890
0 ...........
1 ...........
2 ...........
3 ...........
4 ...........
5 .........hf
6 ...........
7 ...........
8 ...........
9 ...........
0 ...........
1 ..........h
2 ...........
3 ...........
4 ...........
5 ...........
6 ...........
7 ...........
8 .....f..f..
9 ...........
0 h..........
1 r..........

Turn = 25.
  01234567890
0 ...........
1 ...........
2 ...........
3 ...........
4 ...........
5 .........hf
6 ...........
7 ...........
8 ...........
9 ...........
0 ...........
1 ..........h
2 ...........
3 ...........
4 ...........
5 ...........
6 ...........
7 ...........
8 .....f..f..
9 ...........
0 r..........
1 r..........

Turn = 26.
  01234567890
0 ...........
1 ...........
2 ...........
3 ...........
4 ...........
5 .........hf
6 ...........
7 ...........
8 ...........
9 ...........
0 ...........
1 ..........h
2 ...........
3 ...........
4 ...........
5 ...........
6 ...........
7 ...........
8 .....f..f..
9 ...........
0 r..........
1 r..........

Turn = 27.
  01234567890
0 ...........
1 ...........
2 ...........
3 ...........
4 ...........
5 .........hf
6 ...........
7 ...........
8 ...........
9 ...........
0 ...........
1 ..........h
2 ...........
3 ...........
4 ...........
5 ...........
6 ...........
7 ...........
8 .....f..f..
9 r..........
0 ...........
1 .r.........

Turn = 28.
  01234567890
0 ...........
1 ...........
2 ...........
3 ...........
4 ...........
5 .........hf
6 ...........
7 ...........
8 ...........
9 ...........
0 ...........
1 ..........h
2 ...........
3 ...........
4 ...........
5 ...........
6 ...........
7 ...........
8 r....f..f..
9 ...........
0 ...........
1 ..r........

Turn = 29.
  01234567890
0 ...........
1 ...........
2 ...........
3 ...........
4 ...........
5 .........hf
6 ...........
7 ...........
8 ...........
9 ...........
0 ...........
1 ..........h
2 ...........
3 ...........
4 ...........
5 ...........
6 ...........
7 r..........
8 .....f..f..
9 ...........
0 ...........
1 ...r.......

Turn = 30.
  01234567890
0 ...........
1 ...........
2 ...........
3 ...........
4 ...........
5 .........hf
6 ...........
7 ...........
8 ...........
9 ...........
0 ...........
1 ..........h
2 ...........
3 ...........
4 ...........
5 ...........
6 r..........
7 ...........
8 .....f..f..
9 ...........
0 ...........
1 ....r......

Turn = 31.
  01234567890
0 ...........
1 ...........
2 ...........
3 ...........
4 ...........
5 .........hf
6 ...........
7 ...........
8 ...........
9 ...........
0 ...........
1 ..........h
2 ...........
3 ...........
4 ...........
5 r..........
6 ...........
7 ...........
8 .....f..f..
9 ...........
0 ...........
1 .....r.....

Turn = 32.
  01234567890
0 ...........
1 ...........
2 ...........
3 ...........
4 ...........
5 .........hf
6 ...........
7 ...........
8 ...........
9 ...........
0 ...........
1 ..........h
2 ...........
3 ...........
4 r..........
5 ...........
6 ...........
7 ...........
8 .....f..f..
9 ...........
0 ...........
1 ......r....

Turn = 33.
  01234567890
0 ...........
1 ...........
2 ...........
3 ...........
4 ...........
5 .........hf
6 ...........
7 ...........
8 ...........
9 ...........
0 ...........
1 ..........h
2 ...........
3 r..........
4 ...........
5 ...........
6 ...........
7 ...........
8 .....f..f..
9 ...........
0 ...........
1 .......r...

Turn = 34.
  01234567890
0 ...........
1 ...........
2 ...........
3 ...........
4 ...........
5 .........hf
6 ...........
7 ...........
8 ...........
9 ...........
0 ...........
1 ..........h
2 r..........
3 ...........
4 ...........
5 ...........
6 ...........
7 ...........
8 .....f..f..
9 ...........
0 ...........
1 ........r..

Turn = 35.
  01234567890
0 ...........
1 ...........
2 ...........
3 ...........
4 ...........
5 .........hf
6 ...........
7 ...........
8 ...........
9 ...........
0 ...........
1 r.........h
2 ...........
3 ...........
4 ...........
5 ...........
6 ...........
7 ...........
8 .....f..f..
9 ...........
0 ...........
1 .........r.

Turn = 36.
  01234567890
0 ...........
1 ...........
2 ...........
3 ...........
4 ...........
5 .........hf
6 ...........
7 ...........
8 ...........
9 ...........
0 r..........
1 ..........h
2 ...........
3 ...........
4 ...........
5 ...........
6 ...........
7 ...........
8 .....f..f..
9 ...........
0 ...........
1 ..........r

Turn = 37.
  01234567890
0 ...........
1 ...........
2 ...........
3 ...........
4 ...........
5 .........hf
6 ...........
7 ...........
8 ...........
9 r..........
0 ...........
1 ..........h
2 ...........
3 ...........
4 ...........
5 ...........
6 ...........
7 ...........
8 .....f..f..
9 ...........
0 ...........
1 ..........r

*** Darwin 25x22 ***
Turn = 0.
  0123456789012345678901
0 ...................r..
1 .....t................
2 ..........r...........
3 ......................
4 ....................h.
5 .......h..............
6 .....ft...............
7 ...................h..
8 ..........f.h.....h...
9 ......................
0 ..........f...........
1 ......................
2 .........f......f.....
3 r.....................
4 ......................
5 ................f.....
6 r.........h.......t...
7 .h....................
8 ......................
9 ......................
0 .........t............
1 ................t....h
2 ....................f.
3 ......................
4 ......h...............

Turn = 1.
  0123456789012345678901
0 ......................
1 .....t.............r..
2 ...........r..........
3 ......................
4 .......h.............h
5 ......................
6 .....ft...............
7 ............h.........
8 ..........f.......hh..
9 ......................
0 ..........f...........
1 ......................
2 r........f......f.....
3 ......................
4 ......................
5 ................f.....
6 r..........h......t...
7 h.....................
8 ......................
9 ......................
0 .........t............
1 ................t.....
2 ....................fh
3 ......................
4 .......h..............

Turn = 2.
  0123456789012345678901
0 ......................
1 .....t................
2 ............r......r..
3 .......h..............
4 .....................h
5 ......................
6 .....ft.....h.........
7 ......................
8 ..........f.......h...
9 ...................h..
0 ..........f...........
1 r.....................
2 .........f......f.....
3 ......................
4 ......................
5 r...............f.....
6 ............h.....t...
7 h.....................
8 ......................
9 ......................
0 .........t............
1 ................t.....
2 ....................f.
3 .....................h
4 ........h.............

Turn = 3.
  0123456789012345678901
0 ......................
1 .....t................
2 .......h.....r........
3 ...................r..
4 .....................h
5 ............h.........
6 .....ft...............
7 ......................
8 ..........f........h..
9 ......................
0 r.........f........h..
1 ......................
2 .........f......f.....
3 ......................
4 r.....................
5 ................f.....
6 .............h....t...
7 h.....................
8 ......................
9 ......................
0 .........t............
1 ................t.....
2 ....................f.
3 ......................
4 .........h...........h

Turn = 4.
  0123456789012345678901
0 ......................
1 .....t.h..............
2 ..............r.......
3 ......................
4 ............h......r.h
5 ......................
6 .....tt...............
7 ......................
8 ..........f.........h.
9 r.....................
0 ..........f...........
1 ...................h..
2 .........f......f.....
3 r.....................
4 ......................
5 ................f.....
6 ..............h...t...
7 h.....................
8 ......................
9 ......................
0 .........t............
1 ................t.....
2 ....................f.
3 ......................
4 ..........h..........h

Turn = 5.
  0123456789012345678901
0 .......h..............
1 .....t................
2 ...............r......
3 ............h.........
4 .....................h
5 ...................r..
6 .....tt...............
7 ......................
8 r.........f..........h
9 ......................
0 ..........f...........
1 ......................
2 r........f......f..h..
3 ......................
4 ......................
5 ................f.....
6 ...............h..t...
7 h.....................
8 ......................
9 ......................
0 .........t............
1 ................t.....
2 ....................f.
3 ......................
4 ...........h.........h

*** Darwin 20x24 ***
Turn = 0.
  012345678901234567890123
0 .............f..t.......
1 ..........h.............
2 .....................t..
3 .........h..............
4 ........................
5 ........................
6 t........h..............
7 ........................
8 ........................
9 ........................
0 ........................
1 ...f...................r
2 ........................
3 ........................
4 ...................r....
5 ........................
6 ........................
7 ........................
8 ........................
9 ...............f.....r..

Turn = 2.
  012345678901234567890123
0 .............f..t.......
1 ............h...........
2 .....................t..
3 .......h................
4 ........................
5 ........................
6 t......h................
7 ........................
8 ........................
9 ........................
0 ........................
1 ...f.................r..
2 ........................
3 ........................
4 ........................
5 ........................
6 ...................r....
7 ........................
8 ........................
9 ...............f....r...

Turn = 4.
  012345678901234567890123
0 .............f..t.......
1 ..............h.........
2 .....................t..
3 .....h..................
4 ........................
5 ........................
6 t....h..................
7 ........................
8 ........................
9 ........................
0 ........................
1 ...f...............r....
2 ........................
3 ........................
4 ........................
5 ........................
6 ........................
7 ........................
8 ...................r....
9 ...............f..r.....

Turn = 6.
  012345678901234567890123
0 .............f..t.......
1 ................h.......
2 .....................t..
3 ...h....................
4 ........................
5 ........................
6 t..h....................
7 ........................
8 ........................
9 ........................
0 ........................
1 ...f.............r......
2 ........................
3 ........................
4 ........................
5 ........................
6 ........................
7 ........................
8 ........................
9 ...............fr..r....

Turn = 8.
  012345678901234567890123
0 .............f..t.......
1 ................t.......
2 .....................t..
3 .h......................
4 ........................
5 ........................
6 th......................
7 ........................
8 ........................
9 ........................
0 ........................
1 ...f...........r........
2 ........................
3 ........................
4 ........................
5 ........................
6 ........................
7 ........................
8 ...............r........
9 ...............r.....r..

Turn = 10.
  012345678901234567890123
0 .............f..t.......
1 ................t.......
2 .....................t..
3 h.......................
4 ........................
5 ........................
6 th......................
7 ........................
8 ........................
9 ........................
0 ........................
1 ...f.........r..........
2 ........................
3 ........................
4 ........................
5 ........................
6 ...............r........
7 ........................
8 ........................
9 .............r.........r

Turn = 12.
  012345678901234567890123
0 .............f..t.......
1 ................t.......
2 .....................t..
3 h.......................
4 ........................
5 ........................
6 tt......................
7 ........................
8 ........................
9 ........................
0 ........................
1 ...f.......r............
2 ........................
3 ........................
4 ...............r........
5 ........................
6 ........................
7 ........................
8 ........................
9 ...........r...........r

Turn = 14.
  012345678901234567890123
0 .............f..t.......
1 ................t.......
2 .....................t..
3 h.......................
4 ........................
5 ........................
6 tt......................
7 ........................
8 ........................
9 ........................
0 ........................
1 ...f.....r..............
2 ...............r........
3 ........................
4 ........................
5 ........................
6 ........................
7 ........................
8 ........................
9 .........r...........r..

Turn = 16.
  012345678901234567890123
0 .............f..t.......
1 ................t.......
2 .....................t..
3 h.......................
4 ........................
5 ........................
6 tt......................
7 ........................
8 ........................
9 ........................
0 ...............r........
1 ...f...r................
2 ........................
3 ........................
4 ........................
5 ........................
6 ........................
7 ........................
8 ........................
9 .......r...........r....

Turn = 18.
  012345678901234567890123
0 .............f..t.......
1 ................t.......
2 .....................t..
3 h.......................
4 ........................
5 ........................
6 tt......................
7 ........................
8 ...............r........
9 ........................
0 ........................
1 ...f.r..................
2 ........................
3 ........................
4 ........................
5 ........................
6 ........................
7 ........................
8 ........................
9 .....r...........r......

Turn = 20.
  012345678901234567890123
0 .............f..t.......
1 ................t.......
2 .....................t..
3 h.......................
4 ........................
5 ........................
6 tt.............r........
7 ........................
8 ........................
9 ........................
0 ........................
1 ...rr...................
2 ........................
3 ........................
4 ........................
5 ........................
6 ........................
7 ........................
8 ........................
9 ...r...........r........

Turn = 22.
  012345678901234567890123
0 .............f..t.......
1 ................t.......
2 .....................t..
3 h.......................
4 ...............r........
5 ........................
6 tt......................
7 ........................
8 ........................
9 ........................
0 ........................
1 ..r.....................
2 ........................
3 ...r....................
4 ........................
5 ........................
6 ........................
7 ........................
8 ........................
9 .r...........r..........

Turn = 24.
  012345678901234567890123
0 .............f..t.......
1 ................t.......
2 ...............r.....t..
3 h.......................
4 ........................
5 ........................
6 tt......................
7 ........................
8 ........................
9 ........................
0 ........................
1 r.......................
2 ........................
3 ........................
4 ........................
5 ...r....................
6 ........................
7 ........................
8 ........................
9 r..........r............
